{
    "_ansible_facts_gathered": true, 
    "ansible_all_ipv4_addresses": [
        "172.29.232.140"
    ], 
    "ansible_all_ipv6_addresses": [
        "fe80::b87:346e:a183:7273"
    ], 
    "ansible_apparmor": {
        "status": "disabled"
    }, 
    "ansible_architecture": "x86_64", 
    "ansible_bios_date": "10/22/2009", 
    "ansible_bios_version": "786G7 v01.02", 
    "ansible_cmdline": {
        "BOOT_IMAGE": "(hd0,msdos1)/vmlinuz-4.18.0-221.el8.x86_64", 
        "crashkernel": "auto", 
        "quiet": true, 
        "rd.luks.uuid": "luks-8eaa2eeb-a1fe-409f-a823-6f078496a4ad", 
        "rd.lvm.lv": "rhel/swap", 
        "resume": "/dev/mapper/rhel-swap", 
        "rhgb": true, 
        "ro": true, 
        "root": "/dev/mapper/rhel-root"
    }, 
    "ansible_date_time": {
        "date": "2020-11-01", 
        "day": "01", 
        "epoch": "1604244747", 
        "hour": "15", 
        "iso8601": "2020-11-01T15:32:27Z", 
        "iso8601_basic": "20201101T153227572618", 
        "iso8601_basic_short": "20201101T153227", 
        "iso8601_micro": "2020-11-01T15:32:27.572720Z", 
        "minute": "32", 
        "month": "11", 
        "second": "27", 
        "time": "15:32:27", 
        "tz": "GMT", 
        "tz_offset": "+0000", 
        "weekday": "Sunday", 
        "weekday_number": "0", 
        "weeknumber": "43", 
        "year": "2020"
    }, 
    "ansible_default_ipv4": {
        "address": "172.29.232.140", 
        "alias": "enp0s25", 
        "broadcast": "172.29.232.255", 
        "gateway": "172.29.232.1", 
        "interface": "enp0s25", 
        "macaddress": "18:a9:05:f7:47:22", 
        "mtu": 1500, 
        "netmask": "255.255.255.0", 
        "network": "172.29.232.0", 
        "type": "ether"
    }, 
    "ansible_default_ipv6": {}, 
    "ansible_device_links": {
        "ids": {
            "dm-0": [
                "dm-name-luks-8eaa2eeb-a1fe-409f-a823-6f078496a4ad", 
                "dm-uuid-CRYPT-LUKS2-8eaa2eeba1fe409fa8236f078496a4ad-luks-8eaa2eeb-a1fe-409f-a823-6f078496a4ad", 
                "lvm-pv-uuid-IGCN0e-hMGm-fbnK-D1rQ-nm0x-zZgn-2odO30"
            ], 
            "dm-1": [
                "dm-name-rhel-root", 
                "dm-uuid-LVM-CJPtSQ8DLM2jKQXeiAnL9dJ6LgBweOswAz25KnONsCk4pNZ5bP80wBVTJSDo1Jze"
            ], 
            "dm-2": [
                "dm-name-rhel-swap", 
                "dm-uuid-LVM-CJPtSQ8DLM2jKQXeiAnL9dJ6LgBweOswhEBw75n1udxyXcdC4mx2VdzX9RwdJs04"
            ], 
            "sda": [
                "ata-CT120BX300SSD1_1744E105F13F", 
                "scsi-0ATA_CT120BX300SSD1_1744E105F13F", 
                "scsi-1ATA_CT120BX300SSD1_1744E105F13F", 
                "scsi-SATA_CT120BX300SSD1_1744E105F13F"
            ], 
            "sda1": [
                "ata-CT120BX300SSD1_1744E105F13F-part1", 
                "scsi-0ATA_CT120BX300SSD1_1744E105F13F-part1", 
                "scsi-1ATA_CT120BX300SSD1_1744E105F13F-part1", 
                "scsi-SATA_CT120BX300SSD1_1744E105F13F-part1"
            ], 
            "sda2": [
                "ata-CT120BX300SSD1_1744E105F13F-part2", 
                "scsi-0ATA_CT120BX300SSD1_1744E105F13F-part2", 
                "scsi-1ATA_CT120BX300SSD1_1744E105F13F-part2", 
                "scsi-SATA_CT120BX300SSD1_1744E105F13F-part2"
            ], 
            "sr0": [
                "ata-hp_DVDRAM_GT30L_KZ8A7TB2923"
            ]
        }, 
        "labels": {}, 
        "masters": {
            "dm-0": [
                "dm-1", 
                "dm-2"
            ], 
            "sda2": [
                "dm-0"
            ]
        }, 
        "uuids": {
            "dm-1": [
                "12244a91-69c0-40b7-a804-39364d07a9a6"
            ], 
            "dm-2": [
                "99cf6230-4fc1-4f04-a0d6-97eff4779fd0"
            ], 
            "sda1": [
                "c52c03ba-2d56-4660-9148-da509593d381"
            ], 
            "sda2": [
                "8eaa2eeb-a1fe-409f-a823-6f078496a4ad"
            ]
        }
    }, 
    "ansible_devices": {
        "dm-0": {
            "holders": [
                "rhel-root", 
                "rhel-swap"
            ], 
            "host": "", 
            "links": {
                "ids": [
                    "dm-name-luks-8eaa2eeb-a1fe-409f-a823-6f078496a4ad", 
                    "dm-uuid-CRYPT-LUKS2-8eaa2eeba1fe409fa8236f078496a4ad-luks-8eaa2eeb-a1fe-409f-a823-6f078496a4ad", 
                    "lvm-pv-uuid-IGCN0e-hMGm-fbnK-D1rQ-nm0x-zZgn-2odO30"
                ], 
                "labels": [], 
                "masters": [
                    "dm-1", 
                    "dm-2"
                ], 
                "uuids": []
            }, 
            "model": null, 
            "partitions": {}, 
            "removable": "0", 
            "rotational": "0", 
            "sas_address": null, 
            "sas_device_handle": null, 
            "scheduler_mode": "", 
            "sectors": "232308736", 
            "sectorsize": "512", 
            "size": "110.77 GB", 
            "support_discard": "4096", 
            "vendor": null, 
            "virtual": 1
        }, 
        "dm-1": {
            "holders": [], 
            "host": "", 
            "links": {
                "ids": [
                    "dm-name-rhel-root", 
                    "dm-uuid-LVM-CJPtSQ8DLM2jKQXeiAnL9dJ6LgBweOswAz25KnONsCk4pNZ5bP80wBVTJSDo1Jze"
                ], 
                "labels": [], 
                "masters": [], 
                "uuids": [
                    "12244a91-69c0-40b7-a804-39364d07a9a6"
                ]
            }, 
            "model": null, 
            "partitions": {}, 
            "removable": "0", 
            "rotational": "0", 
            "sas_address": null, 
            "sas_device_handle": null, 
            "scheduler_mode": "", 
            "sectors": "223944704", 
            "sectorsize": "512", 
            "size": "106.79 GB", 
            "support_discard": "4096", 
            "vendor": null, 
            "virtual": 1
        }, 
        "dm-2": {
            "holders": [], 
            "host": "", 
            "links": {
                "ids": [
                    "dm-name-rhel-swap", 
                    "dm-uuid-LVM-CJPtSQ8DLM2jKQXeiAnL9dJ6LgBweOswhEBw75n1udxyXcdC4mx2VdzX9RwdJs04"
                ], 
                "labels": [], 
                "masters": [], 
                "uuids": [
                    "99cf6230-4fc1-4f04-a0d6-97eff4779fd0"
                ]
            }, 
            "model": null, 
            "partitions": {}, 
            "removable": "0", 
            "rotational": "0", 
            "sas_address": null, 
            "sas_device_handle": null, 
            "scheduler_mode": "", 
            "sectors": "8355840", 
            "sectorsize": "512", 
            "size": "3.98 GB", 
            "support_discard": "4096", 
            "vendor": null, 
            "virtual": 1
        }, 
        "sda": {
            "holders": [], 
            "host": "", 
            "links": {
                "ids": [
                    "ata-CT120BX300SSD1_1744E105F13F", 
                    "scsi-0ATA_CT120BX300SSD1_1744E105F13F", 
                    "scsi-1ATA_CT120BX300SSD1_1744E105F13F", 
                    "scsi-SATA_CT120BX300SSD1_1744E105F13F"
                ], 
                "labels": [], 
                "masters": [], 
                "uuids": []
            }, 
            "model": "CT120BX300SSD1", 
            "partitions": {
                "sda1": {
                    "holders": [], 
                    "links": {
                        "ids": [
                            "ata-CT120BX300SSD1_1744E105F13F-part1", 
                            "scsi-0ATA_CT120BX300SSD1_1744E105F13F-part1", 
                            "scsi-1ATA_CT120BX300SSD1_1744E105F13F-part1", 
                            "scsi-SATA_CT120BX300SSD1_1744E105F13F-part1"
                        ], 
                        "labels": [], 
                        "masters": [], 
                        "uuids": [
                            "c52c03ba-2d56-4660-9148-da509593d381"
                        ]
                    }, 
                    "sectors": "2097152", 
                    "sectorsize": 512, 
                    "size": "1.00 GB", 
                    "start": "2048", 
                    "uuid": "c52c03ba-2d56-4660-9148-da509593d381"
                }, 
                "sda2": {
                    "holders": [
                        "luks-8eaa2eeb-a1fe-409f-a823-6f078496a4ad"
                    ], 
                    "links": {
                        "ids": [
                            "ata-CT120BX300SSD1_1744E105F13F-part2", 
                            "scsi-0ATA_CT120BX300SSD1_1744E105F13F-part2", 
                            "scsi-1ATA_CT120BX300SSD1_1744E105F13F-part2", 
                            "scsi-SATA_CT120BX300SSD1_1744E105F13F-part2"
                        ], 
                        "labels": [], 
                        "masters": [
                            "dm-0"
                        ], 
                        "uuids": [
                            "8eaa2eeb-a1fe-409f-a823-6f078496a4ad"
                        ]
                    }, 
                    "sectors": "232341504", 
                    "sectorsize": 512, 
                    "size": "110.79 GB", 
                    "start": "2099200", 
                    "uuid": "8eaa2eeb-a1fe-409f-a823-6f078496a4ad"
                }
            }, 
            "removable": "0", 
            "rotational": "0", 
            "sas_address": null, 
            "sas_device_handle": null, 
            "scheduler_mode": "mq-deadline", 
            "sectors": "234441648", 
            "sectorsize": "512", 
            "serial": "1744E105F13F", 
            "size": "111.79 GB", 
            "support_discard": "4096", 
            "vendor": "ATA", 
            "virtual": 1
        }, 
        "sr0": {
            "holders": [], 
            "host": "", 
            "links": {
                "ids": [
                    "ata-hp_DVDRAM_GT30L_KZ8A7TB2923"
                ], 
                "labels": [], 
                "masters": [], 
                "uuids": []
            }, 
            "model": "DVDRAM GT30L", 
            "partitions": {}, 
            "removable": "1", 
            "rotational": "1", 
            "sas_address": null, 
            "sas_device_handle": null, 
            "scheduler_mode": "mq-deadline", 
            "sectors": "2097151", 
            "sectorsize": "512", 
            "size": "1024.00 MB", 
            "support_discard": "0", 
            "vendor": "hp", 
            "virtual": 1
        }
    }, 
    "ansible_distribution": "RedHat", 
    "ansible_distribution_file_parsed": true, 
    "ansible_distribution_file_path": "/etc/redhat-release", 
    "ansible_distribution_file_search_string": "Red Hat", 
    "ansible_distribution_file_variety": "RedHat", 
    "ansible_distribution_major_version": "8", 
    "ansible_distribution_release": "Ootpa", 
    "ansible_distribution_version": "8.3", 
    "ansible_dns": {
        "nameservers": [
            "172.29.232.212"
        ], 
        "search": [
            "mehar.me"
        ]
    }, 
    "ansible_domain": "", 
    "ansible_effective_group_id": 0, 
    "ansible_effective_user_id": 0, 
    "ansible_enp0s25": {
        "active": true, 
        "device": "enp0s25", 
        "features": {
            "esp_hw_offload": "off [fixed]", 
            "esp_tx_csum_hw_offload": "off [fixed]", 
            "fcoe_mtu": "off [fixed]", 
            "generic_receive_offload": "on", 
            "generic_segmentation_offload": "on", 
            "highdma": "on [fixed]", 
            "hw_tc_offload": "off [fixed]", 
            "l2_fwd_offload": "off [fixed]", 
            "large_receive_offload": "off [fixed]", 
            "loopback": "off [fixed]", 
            "netns_local": "off [fixed]", 
            "ntuple_filters": "off [fixed]", 
            "receive_hashing": "on", 
            "rx_all": "off", 
            "rx_checksumming": "on", 
            "rx_fcs": "off", 
            "rx_gro_hw": "off [fixed]", 
            "rx_udp_tunnel_port_offload": "off [fixed]", 
            "rx_vlan_filter": "off [fixed]", 
            "rx_vlan_offload": "on", 
            "rx_vlan_stag_filter": "off [fixed]", 
            "rx_vlan_stag_hw_parse": "off [fixed]", 
            "scatter_gather": "on", 
            "tcp_segmentation_offload": "on", 
            "tls_hw_record": "off [fixed]", 
            "tls_hw_rx_offload": "off [fixed]", 
            "tls_hw_tx_offload": "off [fixed]", 
            "tx_checksum_fcoe_crc": "off [fixed]", 
            "tx_checksum_ip_generic": "on", 
            "tx_checksum_ipv4": "off [fixed]", 
            "tx_checksum_ipv6": "off [fixed]", 
            "tx_checksum_sctp": "off [fixed]", 
            "tx_checksumming": "on", 
            "tx_esp_segmentation": "off [fixed]", 
            "tx_fcoe_segmentation": "off [fixed]", 
            "tx_gre_csum_segmentation": "off [fixed]", 
            "tx_gre_segmentation": "off [fixed]", 
            "tx_gso_partial": "off [fixed]", 
            "tx_gso_robust": "off [fixed]", 
            "tx_ipxip4_segmentation": "off [fixed]", 
            "tx_ipxip6_segmentation": "off [fixed]", 
            "tx_lockless": "off [fixed]", 
            "tx_nocache_copy": "off", 
            "tx_scatter_gather": "on", 
            "tx_scatter_gather_fraglist": "off [fixed]", 
            "tx_sctp_segmentation": "off [fixed]", 
            "tx_tcp6_segmentation": "on", 
            "tx_tcp_ecn_segmentation": "off [fixed]", 
            "tx_tcp_mangleid_segmentation": "off", 
            "tx_tcp_segmentation": "on", 
            "tx_udp_segmentation": "off [fixed]", 
            "tx_udp_tnl_csum_segmentation": "off [fixed]", 
            "tx_udp_tnl_segmentation": "off [fixed]", 
            "tx_vlan_offload": "on", 
            "tx_vlan_stag_hw_insert": "off [fixed]", 
            "vlan_challenged": "off [fixed]"
        }, 
        "hw_timestamp_filters": [], 
        "ipv4": {
            "address": "172.29.232.140", 
            "broadcast": "172.29.232.255", 
            "netmask": "255.255.255.0", 
            "network": "172.29.232.0"
        }, 
        "ipv6": [
            {
                "address": "fe80::b87:346e:a183:7273", 
                "prefix": "64", 
                "scope": "link"
            }
        ], 
        "macaddress": "18:a9:05:f7:47:22", 
        "module": "e1000e", 
        "mtu": 1500, 
        "pciid": "0000:00:19.0", 
        "promisc": false, 
        "speed": 1000, 
        "timestamping": [
            "tx_software", 
            "rx_software", 
            "software"
        ], 
        "type": "ether"
    }, 
    "ansible_env": {
        "HOME": "/root", 
        "LANG": "en_GB.UTF-8", 
        "LOGNAME": "root", 
        "LS_COLORS": "rs=0:di=38;5;33:ln=38;5;51:mh=00:pi=40;38;5;11:so=38;5;13:do=38;5;5:bd=48;5;232;38;5;11:cd=48;5;232;38;5;3:or=48;5;232;38;5;9:mi=01;05;37;41:su=48;5;196;38;5;15:sg=48;5;11;38;5;16:ca=48;5;196;38;5;226:tw=48;5;10;38;5;16:ow=48;5;10;38;5;21:st=48;5;21;38;5;15:ex=38;5;40:*.tar=38;5;9:*.tgz=38;5;9:*.arc=38;5;9:*.arj=38;5;9:*.taz=38;5;9:*.lha=38;5;9:*.lz4=38;5;9:*.lzh=38;5;9:*.lzma=38;5;9:*.tlz=38;5;9:*.txz=38;5;9:*.tzo=38;5;9:*.t7z=38;5;9:*.zip=38;5;9:*.z=38;5;9:*.dz=38;5;9:*.gz=38;5;9:*.lrz=38;5;9:*.lz=38;5;9:*.lzo=38;5;9:*.xz=38;5;9:*.zst=38;5;9:*.tzst=38;5;9:*.bz2=38;5;9:*.bz=38;5;9:*.tbz=38;5;9:*.tbz2=38;5;9:*.tz=38;5;9:*.deb=38;5;9:*.rpm=38;5;9:*.jar=38;5;9:*.war=38;5;9:*.ear=38;5;9:*.sar=38;5;9:*.rar=38;5;9:*.alz=38;5;9:*.ace=38;5;9:*.zoo=38;5;9:*.cpio=38;5;9:*.7z=38;5;9:*.rz=38;5;9:*.cab=38;5;9:*.wim=38;5;9:*.swm=38;5;9:*.dwm=38;5;9:*.esd=38;5;9:*.jpg=38;5;13:*.jpeg=38;5;13:*.mjpg=38;5;13:*.mjpeg=38;5;13:*.gif=38;5;13:*.bmp=38;5;13:*.pbm=38;5;13:*.pgm=38;5;13:*.ppm=38;5;13:*.tga=38;5;13:*.xbm=38;5;13:*.xpm=38;5;13:*.tif=38;5;13:*.tiff=38;5;13:*.png=38;5;13:*.svg=38;5;13:*.svgz=38;5;13:*.mng=38;5;13:*.pcx=38;5;13:*.mov=38;5;13:*.mpg=38;5;13:*.mpeg=38;5;13:*.m2v=38;5;13:*.mkv=38;5;13:*.webm=38;5;13:*.ogm=38;5;13:*.mp4=38;5;13:*.m4v=38;5;13:*.mp4v=38;5;13:*.vob=38;5;13:*.qt=38;5;13:*.nuv=38;5;13:*.wmv=38;5;13:*.asf=38;5;13:*.rm=38;5;13:*.rmvb=38;5;13:*.flc=38;5;13:*.avi=38;5;13:*.fli=38;5;13:*.flv=38;5;13:*.gl=38;5;13:*.dl=38;5;13:*.xcf=38;5;13:*.xwd=38;5;13:*.yuv=38;5;13:*.cgm=38;5;13:*.emf=38;5;13:*.ogv=38;5;13:*.ogx=38;5;13:*.aac=38;5;45:*.au=38;5;45:*.flac=38;5;45:*.m4a=38;5;45:*.mid=38;5;45:*.midi=38;5;45:*.mka=38;5;45:*.mp3=38;5;45:*.mpc=38;5;45:*.ogg=38;5;45:*.ra=38;5;45:*.wav=38;5;45:*.oga=38;5;45:*.opus=38;5;45:*.spx=38;5;45:*.xspf=38;5;45:", 
        "MAIL": "/var/mail/root", 
        "PATH": "/sbin:/bin:/usr/sbin:/usr/bin", 
        "PWD": "/home/aaron", 
        "SHELL": "/bin/bash", 
        "SHLVL": "1", 
        "SUDO_COMMAND": "/bin/sh -c echo BECOME-SUCCESS-axrbfebbmcgamwdpseavdjkaowqqutxh ; /usr/libexec/platform-python /home/aaron/.ansible/tmp/ansible-tmp-1604244744.57-87751113784861/AnsiballZ_setup.py", 
        "SUDO_GID": "1000", 
        "SUDO_UID": "1000", 
        "SUDO_USER": "aaron", 
        "TERM": "xterm-256color", 
        "USER": "root", 
        "_": "/usr/libexec/platform-python"
    }, 
    "ansible_fibre_channel_wwn": [], 
    "ansible_fips": false, 
    "ansible_form_factor": "Space-saving", 
    "ansible_fqdn": "build", 
    "ansible_hostname": "build", 
    "ansible_hostnqn": "", 
    "ansible_interfaces": [
        "lo", 
        "enp0s25"
    ], 
    "ansible_is_chroot": false, 
    "ansible_iscsi_iqn": "", 
    "ansible_kernel": "4.18.0-221.el8.x86_64", 
    "ansible_kernel_version": "#1 SMP Thu Jun 25 20:58:19 UTC 2020", 
    "ansible_lo": {
        "active": true, 
        "device": "lo", 
        "features": {
            "esp_hw_offload": "off [fixed]", 
            "esp_tx_csum_hw_offload": "off [fixed]", 
            "fcoe_mtu": "off [fixed]", 
            "generic_receive_offload": "on", 
            "generic_segmentation_offload": "on", 
            "highdma": "on [fixed]", 
            "hw_tc_offload": "off [fixed]", 
            "l2_fwd_offload": "off [fixed]", 
            "large_receive_offload": "off [fixed]", 
            "loopback": "on [fixed]", 
            "netns_local": "on [fixed]", 
            "ntuple_filters": "off [fixed]", 
            "receive_hashing": "off [fixed]", 
            "rx_all": "off [fixed]", 
            "rx_checksumming": "on [fixed]", 
            "rx_fcs": "off [fixed]", 
            "rx_gro_hw": "off [fixed]", 
            "rx_udp_tunnel_port_offload": "off [fixed]", 
            "rx_vlan_filter": "off [fixed]", 
            "rx_vlan_offload": "off [fixed]", 
            "rx_vlan_stag_filter": "off [fixed]", 
            "rx_vlan_stag_hw_parse": "off [fixed]", 
            "scatter_gather": "on", 
            "tcp_segmentation_offload": "on", 
            "tls_hw_record": "off [fixed]", 
            "tls_hw_rx_offload": "off [fixed]", 
            "tls_hw_tx_offload": "off [fixed]", 
            "tx_checksum_fcoe_crc": "off [fixed]", 
            "tx_checksum_ip_generic": "on [fixed]", 
            "tx_checksum_ipv4": "off [fixed]", 
            "tx_checksum_ipv6": "off [fixed]", 
            "tx_checksum_sctp": "on [fixed]", 
            "tx_checksumming": "on", 
            "tx_esp_segmentation": "off [fixed]", 
            "tx_fcoe_segmentation": "off [fixed]", 
            "tx_gre_csum_segmentation": "off [fixed]", 
            "tx_gre_segmentation": "off [fixed]", 
            "tx_gso_partial": "off [fixed]", 
            "tx_gso_robust": "off [fixed]", 
            "tx_ipxip4_segmentation": "off [fixed]", 
            "tx_ipxip6_segmentation": "off [fixed]", 
            "tx_lockless": "on [fixed]", 
            "tx_nocache_copy": "off [fixed]", 
            "tx_scatter_gather": "on [fixed]", 
            "tx_scatter_gather_fraglist": "on [fixed]", 
            "tx_sctp_segmentation": "on", 
            "tx_tcp6_segmentation": "on", 
            "tx_tcp_ecn_segmentation": "on", 
            "tx_tcp_mangleid_segmentation": "on", 
            "tx_tcp_segmentation": "on", 
            "tx_udp_segmentation": "off [fixed]", 
            "tx_udp_tnl_csum_segmentation": "off [fixed]", 
            "tx_udp_tnl_segmentation": "off [fixed]", 
            "tx_vlan_offload": "off [fixed]", 
            "tx_vlan_stag_hw_insert": "off [fixed]", 
            "vlan_challenged": "on [fixed]"
        }, 
        "hw_timestamp_filters": [], 
        "ipv4": {
            "address": "127.0.0.1", 
            "broadcast": "host", 
            "netmask": "255.0.0.0", 
            "network": "127.0.0.0"
        }, 
        "ipv6": [
            {
                "address": "::1", 
                "prefix": "128", 
                "scope": "host"
            }
        ], 
        "mtu": 65536, 
        "promisc": false, 
        "timestamping": [
            "tx_software", 
            "rx_software", 
            "software"
        ], 
        "type": "loopback"
    }, 
    "ansible_local": {}, 
    "ansible_lsb": {}, 
    "ansible_lvm": {
        "lvs": {
            "root": {
                "size_g": "106.79", 
                "vg": "rhel"
            }, 
            "swap": {
                "size_g": "3.98", 
                "vg": "rhel"
            }
        }, 
        "pvs": {
            "/dev/mapper/luks-8eaa2eeb-a1fe-409f-a823-6f078496a4ad": {
                "free_g": "0", 
                "size_g": "110.77", 
                "vg": "rhel"
            }
        }, 
        "vgs": {
            "rhel": {
                "free_g": "0", 
                "num_lvs": "2", 
                "num_pvs": "1", 
                "size_g": "110.77"
            }
        }
    }, 
    "ansible_machine": "x86_64", 
    "ansible_machine_id": "61a1988bec4a4fad98a40752997a0810", 
    "ansible_memfree_mb": 2678, 
    "ansible_memory_mb": {
        "nocache": {
            "free": 3305, 
            "used": 326
        }, 
        "real": {
            "free": 2678, 
            "total": 3631, 
            "used": 953
        }, 
        "swap": {
            "cached": 0, 
            "free": 4079, 
            "total": 4079, 
            "used": 0
        }
    }, 
    "ansible_memtotal_mb": 3631, 
    "ansible_mounts": [
        {
            "block_available": 27346957, 
            "block_size": 4096, 
            "block_total": 27979420, 
            "block_used": 632463, 
            "device": "/dev/mapper/rhel-root", 
            "fstype": "xfs", 
            "inode_available": 55947454, 
            "inode_total": 55986176, 
            "inode_used": 38722, 
            "mount": "/", 
            "options": "rw,seclabel,relatime,attr2,inode64,logbufs=8,logbsize=32k,noquota", 
            "size_available": 112013135872, 
            "size_total": 114603704320, 
            "uuid": "12244a91-69c0-40b7-a804-39364d07a9a6"
        }, 
        {
            "block_available": 209260, 
            "block_size": 4096, 
            "block_total": 259584, 
            "block_used": 50324, 
            "device": "/dev/sda1", 
            "fstype": "xfs", 
            "inode_available": 523986, 
            "inode_total": 524288, 
            "inode_used": 302, 
            "mount": "/boot", 
            "options": "rw,seclabel,relatime,attr2,inode64,logbufs=8,logbsize=32k,noquota", 
            "size_available": 857128960, 
            "size_total": 1063256064, 
            "uuid": "c52c03ba-2d56-4660-9148-da509593d381"
        }
    ], 
    "ansible_nodename": "build.mehar.me", 
    "ansible_os_family": "RedHat", 
    "ansible_pkg_mgr": "dnf", 
    "ansible_proc_cmdline": {
        "BOOT_IMAGE": "(hd0,msdos1)/vmlinuz-4.18.0-221.el8.x86_64", 
        "crashkernel": "auto", 
        "quiet": true, 
        "rd.luks.uuid": "luks-8eaa2eeb-a1fe-409f-a823-6f078496a4ad", 
        "rd.lvm.lv": [
            "rhel/root", 
            "rhel/swap"
        ], 
        "resume": "/dev/mapper/rhel-swap", 
        "rhgb": true, 
        "ro": true, 
        "root": "/dev/mapper/rhel-root"
    }, 
    "ansible_processor": [
        "0", 
        "GenuineIntel", 
        "Intel(R) Core(TM)2 Duo CPU     E8500  @ 3.16GHz", 
        "1", 
        "GenuineIntel", 
        "Intel(R) Core(TM)2 Duo CPU     E8500  @ 3.16GHz"
    ], 
    "ansible_processor_cores": 2, 
    "ansible_processor_count": 1, 
    "ansible_processor_threads_per_core": 1, 
    "ansible_processor_vcpus": 2, 
    "ansible_product_name": "HP Compaq 8000 Elite USDT PC", 
    "ansible_product_serial": "CZC0378J7M", 
    "ansible_product_uuid": "8348996e-8be6-11df-bbda-05f7472218a9", 
    "ansible_product_version": "NA", 
    "ansible_python": {
        "executable": "/usr/libexec/platform-python", 
        "has_sslcontext": true, 
        "type": "cpython", 
        "version": {
            "major": 3, 
            "micro": 8, 
            "minor": 6, 
            "releaselevel": "final", 
            "serial": 0
        }, 
        "version_info": [
            3, 
            6, 
            8, 
            "final", 
            0
        ]
    }, 
    "ansible_python_version": "3.6.8", 
    "ansible_real_group_id": 0, 
    "ansible_real_user_id": 0, 
    "ansible_selinux": {
        "config_mode": "enforcing", 
        "mode": "enforcing", 
        "policyvers": 32, 
        "status": "enabled", 
        "type": "targeted"
    }, 
    "ansible_selinux_python_present": true, 
    "ansible_service_mgr": "systemd", 
    "ansible_ssh_host_key_ecdsa_public": "AAAAE2VjZHNhLXNoYTItbmlzdHAyNTYAAAAIbmlzdHAyNTYAAABBBGvAlbVo1GLhEsG2qcmkjkzUSnCDgllCx75vHGwoNCSFuiI7pq07YU6xbRBqIc4o0F1Rq9nmvzwQB3zItaN5lQQ=", 
    "ansible_ssh_host_key_ed25519_public": "AAAAC3NzaC1lZDI1NTE5AAAAIGUuSjbLdarGQ7knodKjsGWQTXtihc7cbe7KpN5U+D0+", 
    "ansible_ssh_host_key_rsa_public": "AAAAB3NzaC1yc2EAAAADAQABAAABgQDGRJRRtEvJo85YR0zTUV+gZHdMWdaKH7GVbUqMyCkkPlLofTklFoJT3mJM8LWAFGahsdk3YRZfkpDUPcU4hKPQ476mLyhlrmjdlc0XidsgQt0rxUsDDFMVDAt77DC7K5HijlttmMunjHxAWQbFVTEVle4eJrWx5w6EnzJvElfPcfFK0nMwN9WYgezYThd2GCYXvLTqC2JoqksUtWVwS2yn4Hb6difqLgT57ml2kg+pHwr7ksKdF0BihLx5zY5AGgQlvGchPtblkjQlFF/C2efo4+E4bxg59ejcVdtWsu6klY8AZlMiSTONDgPdOcZUvVDOzlGOeAlJbBjXt4nPbJLJYG32gzknCMl0thzcoEyBJ0a8ENFqtaBOaZ6Ct3n28lQTWWNZL6jbaDlccPvL1ha19QIsdYUbZE+EXShd87S22eTj5j5ll2usb5RFUSZE1ZL0oRSnmntXNkpyULI1FaWeHmejN2V0OIbTlwS8s+1O9zmr7nB8L4LaJEdhB0udrCE=", 
    "ansible_swapfree_mb": 4079, 
    "ansible_swaptotal_mb": 4079, 
    "ansible_system": "Linux", 
    "ansible_system_capabilities": [
        "cap_chown", 
        "cap_dac_override", 
        "cap_dac_read_search", 
        "cap_fowner", 
        "cap_fsetid", 
        "cap_kill", 
        "cap_setgid", 
        "cap_setuid", 
        "cap_setpcap", 
        "cap_linux_immutable", 
        "cap_net_bind_service", 
        "cap_net_broadcast", 
        "cap_net_admin", 
        "cap_net_raw", 
        "cap_ipc_lock", 
        "cap_ipc_owner", 
        "cap_sys_module", 
        "cap_sys_rawio", 
        "cap_sys_chroot", 
        "cap_sys_ptrace", 
        "cap_sys_pacct", 
        "cap_sys_admin", 
        "cap_sys_boot", 
        "cap_sys_nice", 
        "cap_sys_resource", 
        "cap_sys_time", 
        "cap_sys_tty_config", 
        "cap_mknod", 
        "cap_lease", 
        "cap_audit_write", 
        "cap_audit_control", 
        "cap_setfcap", 
        "cap_mac_override", 
        "cap_mac_admin", 
        "cap_syslog", 
        "cap_wake_alarm", 
        "cap_block_suspend", 
        "cap_audit_read+ep"
    ], 
    "ansible_system_capabilities_enforced": "True", 
    "ansible_system_vendor": "Hewlett-Packard", 
    "ansible_uptime_seconds": 68615, 
    "ansible_user_dir": "/root", 
    "ansible_user_gecos": "root", 
    "ansible_user_gid": 0, 
    "ansible_user_id": "root", 
    "ansible_user_shell": "/bin/bash", 
    "ansible_user_uid": 0, 
    "ansible_userspace_architecture": "x86_64", 
    "ansible_userspace_bits": "64", 
    "ansible_virtualization_role": "NA", 
    "ansible_virtualization_type": "NA", 
    "discovered_interpreter_python": "/usr/libexec/platform-python", 
    "gather_subset": [
        "all"
    ], 
    "module_setup": true
}