{
    "_ansible_facts_gathered": true, 
    "ansible_all_ipv4_addresses": [
        "172.29.232.2"
    ], 
    "ansible_all_ipv6_addresses": [
        "fe80::569f:35ff:fe19:645c"
    ], 
    "ansible_apparmor": {
        "status": "disabled"
    }, 
    "ansible_architecture": "x86_64", 
    "ansible_bios_date": "07/10/2014", 
    "ansible_bios_version": "2.3.3", 
    "ansible_cmdline": {
        "BOOT_IMAGE": "/vmlinuz-3.10.0-1062.el7.x86_64", 
        "LANG": "en_GB.UTF-8", 
        "crashkernel": "auto", 
        "quiet": true, 
        "rd.luks.uuid": "luks-ccdfd0cd-2af7-4128-9925-44c82e435f85", 
        "rd.lvm.lv": "centos/swap", 
        "rhgb": true, 
        "ro": true, 
        "root": "/dev/mapper/centos-root"
    }, 
    "ansible_date_time": {
        "date": "2020-07-12", 
        "day": "12", 
        "epoch": "1594584101", 
        "hour": "21", 
        "iso8601": "2020-07-12T20:01:41Z", 
        "iso8601_basic": "20200712T210141414730", 
        "iso8601_basic_short": "20200712T210141", 
        "iso8601_micro": "2020-07-12T20:01:41.414950Z", 
        "minute": "01", 
        "month": "07", 
        "second": "41", 
        "time": "21:01:41", 
        "tz": "BST", 
        "tz_offset": "+0100", 
        "weekday": "Sunday", 
        "weekday_number": "0", 
        "weeknumber": "27", 
        "year": "2020"
    }, 
    "ansible_default_ipv4": {
        "address": "172.29.232.2", 
        "alias": "em1", 
        "broadcast": "172.29.232.255", 
        "gateway": "172.29.232.1", 
        "interface": "em1", 
        "macaddress": "54:9f:35:19:64:5c", 
        "mtu": 9000, 
        "netmask": "255.255.255.0", 
        "network": "172.29.232.0", 
        "type": "ether"
    }, 
    "ansible_default_ipv6": {}, 
    "ansible_device_links": {
        "ids": {
            "dm-0": [
                "dm-name-luks-ccdfd0cd-2af7-4128-9925-44c82e435f85", 
                "dm-uuid-CRYPT-LUKS1-ccdfd0cd2af74128992544c82e435f85-luks-ccdfd0cd-2af7-4128-9925-44c82e435f85", 
                "lvm-pv-uuid-KK2FWb-Ve3K-IcxE-RL5I-hp82-H1MX-WwJ2Sr"
            ], 
            "dm-1": [
                "dm-name-centos-root", 
                "dm-uuid-LVM-26nXMbsfBiBMQF6oivn8WmVAuKFzNLrX71ATHUdfC99fejilLmBbgMYc4iS1qcbG"
            ], 
            "dm-2": [
                "dm-name-centos-swap", 
                "dm-uuid-LVM-26nXMbsfBiBMQF6oivn8WmVAuKFzNLrXBgruSJKeOXFsqlqR4xWC67vP1jcjQgLw"
            ], 
            "dm-3": [
                "dm-name-centos-home", 
                "dm-uuid-LVM-26nXMbsfBiBMQF6oivn8WmVAuKFzNLrXRLtyYH5dGezTwveoTDXk3mcmSP5j6utc"
            ], 
            "sda": [
                "scsi-36b083fe0e4f72900269c79413093544a", 
                "wwn-0x6b083fe0e4f72900269c79413093544a"
            ], 
            "sda1": [
                "scsi-36b083fe0e4f72900269c79413093544a-part1", 
                "wwn-0x6b083fe0e4f72900269c79413093544a-part1"
            ], 
            "sda2": [
                "scsi-36b083fe0e4f72900269c79413093544a-part2", 
                "wwn-0x6b083fe0e4f72900269c79413093544a-part2"
            ], 
            "sdb": [
                "scsi-36b083fe0e4f72900269c797733d11825", 
                "wwn-0x6b083fe0e4f72900269c797733d11825"
            ], 
            "sdb1": [
                "scsi-36b083fe0e4f72900269c797733d11825-part1", 
                "wwn-0x6b083fe0e4f72900269c797733d11825-part1"
            ], 
            "sdc": [
                "usb-Dell_Internal_Dual_SD_0123456789AB-0:0"
            ], 
            "sdd": [
                "usb-TRUSTED_Mass_Storage_0DB090320690-0:0"
            ], 
            "sdd1": [
                "usb-TRUSTED_Mass_Storage_0DB090320690-0:0-part1"
            ], 
            "sde": [
                "usb-TOSHIBA_External_USB_3.0_20151223016308-0:0"
            ], 
            "sde1": [
                "usb-TOSHIBA_External_USB_3.0_20151223016308-0:0-part1"
            ], 
            "sr0": [
                "ata-PLDS_DVD+_-RW_DH-16AES_PHF8J7363948I525HA00"
            ]
        }, 
        "labels": {
            "sdd1": [
                "Drobo01"
            ]
        }, 
        "masters": {
            "dm-0": [
                "dm-1", 
                "dm-2", 
                "dm-3"
            ], 
            "sda2": [
                "dm-0"
            ]
        }, 
        "uuids": {
            "dm-1": [
                "4d91caf0-f4ac-48ac-9725-99d04138c32c"
            ], 
            "dm-2": [
                "1e20fa76-f9a4-4a37-9238-bdcf7098c46d"
            ], 
            "dm-3": [
                "8ae96bcc-59ea-4c47-a18a-ba86b90824ca"
            ], 
            "sda1": [
                "0dd67f0c-c436-41ee-a351-f429f5df6a28"
            ], 
            "sda2": [
                "ccdfd0cd-2af7-4128-9925-44c82e435f85"
            ], 
            "sdb1": [
                "5b06276a-b915-4be2-a581-d8044d7b67cd"
            ], 
            "sdd1": [
                "6fbc08b1-aeac-4fde-9fea-2ef6ff743b63"
            ], 
            "sde1": [
                "E4C8-746E"
            ]
        }
    }, 
    "ansible_devices": {
        "dm-0": {
            "holders": [
                "centos-root", 
                "centos-swap", 
                "centos-home"
            ], 
            "host": "", 
            "links": {
                "ids": [
                    "dm-name-luks-ccdfd0cd-2af7-4128-9925-44c82e435f85", 
                    "dm-uuid-CRYPT-LUKS1-ccdfd0cd2af74128992544c82e435f85-luks-ccdfd0cd-2af7-4128-9925-44c82e435f85", 
                    "lvm-pv-uuid-KK2FWb-Ve3K-IcxE-RL5I-hp82-H1MX-WwJ2Sr"
                ], 
                "labels": [], 
                "masters": [
                    "dm-1", 
                    "dm-2", 
                    "dm-3"
                ], 
                "uuids": []
            }, 
            "model": null, 
            "partitions": {}, 
            "removable": "0", 
            "rotational": "1", 
            "sas_address": null, 
            "sas_device_handle": null, 
            "scheduler_mode": "", 
            "sectors": "276834304", 
            "sectorsize": "512", 
            "size": "132.00 GB", 
            "support_discard": "0", 
            "vendor": null, 
            "virtual": 1
        }, 
        "dm-1": {
            "holders": [], 
            "host": "", 
            "links": {
                "ids": [
                    "dm-name-centos-root", 
                    "dm-uuid-LVM-26nXMbsfBiBMQF6oivn8WmVAuKFzNLrX71ATHUdfC99fejilLmBbgMYc4iS1qcbG"
                ], 
                "labels": [], 
                "masters": [], 
                "uuids": [
                    "4d91caf0-f4ac-48ac-9725-99d04138c32c"
                ]
            }, 
            "model": null, 
            "partitions": {}, 
            "removable": "0", 
            "rotational": "1", 
            "sas_address": null, 
            "sas_device_handle": null, 
            "scheduler_mode": "", 
            "sectors": "104857600", 
            "sectorsize": "512", 
            "size": "50.00 GB", 
            "support_discard": "0", 
            "vendor": null, 
            "virtual": 1
        }, 
        "dm-2": {
            "holders": [], 
            "host": "", 
            "links": {
                "ids": [
                    "dm-name-centos-swap", 
                    "dm-uuid-LVM-26nXMbsfBiBMQF6oivn8WmVAuKFzNLrXBgruSJKeOXFsqlqR4xWC67vP1jcjQgLw"
                ], 
                "labels": [], 
                "masters": [], 
                "uuids": [
                    "1e20fa76-f9a4-4a37-9238-bdcf7098c46d"
                ]
            }, 
            "model": null, 
            "partitions": {}, 
            "removable": "0", 
            "rotational": "1", 
            "sas_address": null, 
            "sas_device_handle": null, 
            "scheduler_mode": "", 
            "sectors": "67108864", 
            "sectorsize": "512", 
            "size": "32.00 GB", 
            "support_discard": "0", 
            "vendor": null, 
            "virtual": 1
        }, 
        "dm-3": {
            "holders": [], 
            "host": "", 
            "links": {
                "ids": [
                    "dm-name-centos-home", 
                    "dm-uuid-LVM-26nXMbsfBiBMQF6oivn8WmVAuKFzNLrXRLtyYH5dGezTwveoTDXk3mcmSP5j6utc"
                ], 
                "labels": [], 
                "masters": [], 
                "uuids": [
                    "8ae96bcc-59ea-4c47-a18a-ba86b90824ca"
                ]
            }, 
            "model": null, 
            "partitions": {}, 
            "removable": "0", 
            "rotational": "1", 
            "sas_address": null, 
            "sas_device_handle": null, 
            "scheduler_mode": "", 
            "sectors": "104857600", 
            "sectorsize": "512", 
            "size": "50.00 GB", 
            "support_discard": "0", 
            "vendor": null, 
            "virtual": 1
        }, 
        "sda": {
            "holders": [], 
            "host": "RAID bus controller: Broadcom / LSI MegaRAID SAS 2208 [Thunderbolt] (rev 05)", 
            "links": {
                "ids": [
                    "scsi-36b083fe0e4f72900269c79413093544a", 
                    "wwn-0x6b083fe0e4f72900269c79413093544a"
                ], 
                "labels": [], 
                "masters": [], 
                "uuids": []
            }, 
            "model": "PERC H710P", 
            "partitions": {
                "sda1": {
                    "holders": [], 
                    "links": {
                        "ids": [
                            "scsi-36b083fe0e4f72900269c79413093544a-part1", 
                            "wwn-0x6b083fe0e4f72900269c79413093544a-part1"
                        ], 
                        "labels": [], 
                        "masters": [], 
                        "uuids": [
                            "0dd67f0c-c436-41ee-a351-f429f5df6a28"
                        ]
                    }, 
                    "sectors": "2097152", 
                    "sectorsize": 512, 
                    "size": "1.00 GB", 
                    "start": "2048", 
                    "uuid": "0dd67f0c-c436-41ee-a351-f429f5df6a28"
                }, 
                "sda2": {
                    "holders": [
                        "luks-ccdfd0cd-2af7-4128-9925-44c82e435f85"
                    ], 
                    "links": {
                        "ids": [
                            "scsi-36b083fe0e4f72900269c79413093544a-part2", 
                            "wwn-0x6b083fe0e4f72900269c79413093544a-part2"
                        ], 
                        "labels": [], 
                        "masters": [
                            "dm-0"
                        ], 
                        "uuids": [
                            "ccdfd0cd-2af7-4128-9925-44c82e435f85"
                        ]
                    }, 
                    "sectors": "276838400", 
                    "sectorsize": 512, 
                    "size": "132.01 GB", 
                    "start": "2099200", 
                    "uuid": "ccdfd0cd-2af7-4128-9925-44c82e435f85"
                }
            }, 
            "removable": "0", 
            "rotational": "1", 
            "sas_address": null, 
            "sas_device_handle": null, 
            "scheduler_mode": "deadline", 
            "sectors": "2343043072", 
            "sectorsize": "512", 
            "size": "1.09 TB", 
            "support_discard": "0", 
            "vendor": "DELL", 
            "virtual": 1, 
            "wwn": "0x6b083fe0e4f72900269c79413093544a"
        }, 
        "sdb": {
            "holders": [], 
            "host": "RAID bus controller: Broadcom / LSI MegaRAID SAS 2208 [Thunderbolt] (rev 05)", 
            "links": {
                "ids": [
                    "scsi-36b083fe0e4f72900269c797733d11825", 
                    "wwn-0x6b083fe0e4f72900269c797733d11825"
                ], 
                "labels": [], 
                "masters": [], 
                "uuids": []
            }, 
            "model": "PERC H710P", 
            "partitions": {
                "sdb1": {
                    "holders": [], 
                    "links": {
                        "ids": [
                            "scsi-36b083fe0e4f72900269c797733d11825-part1", 
                            "wwn-0x6b083fe0e4f72900269c797733d11825-part1"
                        ], 
                        "labels": [], 
                        "masters": [], 
                        "uuids": [
                            "5b06276a-b915-4be2-a581-d8044d7b67cd"
                        ]
                    }, 
                    "sectors": "19529723905", 
                    "sectorsize": 512, 
                    "size": "9.09 TB", 
                    "start": "2048", 
                    "uuid": "5b06276a-b915-4be2-a581-d8044d7b67cd"
                }
            }, 
            "removable": "0", 
            "rotational": "1", 
            "sas_address": null, 
            "sas_device_handle": null, 
            "scheduler_mode": "deadline", 
            "sectors": "19529728000", 
            "sectorsize": "512", 
            "size": "9.09 TB", 
            "support_discard": "0", 
            "vendor": "DELL", 
            "virtual": 1, 
            "wwn": "0x6b083fe0e4f72900269c797733d11825"
        }, 
        "sdc": {
            "holders": [], 
            "host": "USB controller: Intel Corporation C600/X79 series chipset USB2 Enhanced Host Controller #2 (rev 05)", 
            "links": {
                "ids": [
                    "usb-Dell_Internal_Dual_SD_0123456789AB-0:0"
                ], 
                "labels": [], 
                "masters": [], 
                "uuids": []
            }, 
            "model": "Internal Dual SD", 
            "partitions": {}, 
            "removable": "0", 
            "rotational": "1", 
            "sas_address": null, 
            "sas_device_handle": null, 
            "scheduler_mode": "deadline", 
            "sectors": "3807232", 
            "sectorsize": "512", 
            "size": "1.82 GB", 
            "support_discard": "0", 
            "vendor": "Dell", 
            "virtual": 1
        }, 
        "sdd": {
            "holders": [], 
            "host": "USB controller: Intel Corporation C600/X79 series chipset USB2 Enhanced Host Controller #1 (rev 05)", 
            "links": {
                "ids": [
                    "usb-TRUSTED_Mass_Storage_0DB090320690-0:0"
                ], 
                "labels": [], 
                "masters": [], 
                "uuids": []
            }, 
            "model": "Mass Storage", 
            "partitions": {
                "sdd1": {
                    "holders": [], 
                    "links": {
                        "ids": [
                            "usb-TRUSTED_Mass_Storage_0DB090320690-0:0-part1"
                        ], 
                        "labels": [
                            "Drobo01"
                        ], 
                        "masters": [], 
                        "uuids": [
                            "6fbc08b1-aeac-4fde-9fea-2ef6ff743b63"
                        ]
                    }, 
                    "sectors": "17179869117", 
                    "sectorsize": 512, 
                    "size": "8.00 TB", 
                    "start": "34", 
                    "uuid": "6fbc08b1-aeac-4fde-9fea-2ef6ff743b63"
                }
            }, 
            "removable": "0", 
            "rotational": "1", 
            "sas_address": null, 
            "sas_device_handle": null, 
            "scheduler_mode": "deadline", 
            "sectors": "17179869184", 
            "sectorsize": "512", 
            "size": "8.00 TB", 
            "support_discard": "0", 
            "vendor": "TRUSTED", 
            "virtual": 1
        }, 
        "sde": {
            "holders": [], 
            "host": "USB controller: Intel Corporation C600/X79 series chipset USB2 Enhanced Host Controller #1 (rev 05)", 
            "links": {
                "ids": [
                    "usb-TOSHIBA_External_USB_3.0_20151223016308-0:0"
                ], 
                "labels": [], 
                "masters": [], 
                "uuids": []
            }, 
            "model": "External USB 3.0", 
            "partitions": {
                "sde1": {
                    "holders": [], 
                    "links": {
                        "ids": [
                            "usb-TOSHIBA_External_USB_3.0_20151223016308-0:0-part1"
                        ], 
                        "labels": [], 
                        "masters": [], 
                        "uuids": [
                            "E4C8-746E"
                        ]
                    }, 
                    "sectors": "5860531072", 
                    "sectorsize": 512, 
                    "size": "2.73 TB", 
                    "start": "2048", 
                    "uuid": "E4C8-746E"
                }
            }, 
            "removable": "0", 
            "rotational": "1", 
            "sas_address": null, 
            "sas_device_handle": null, 
            "scheduler_mode": "deadline", 
            "sectors": "5860533160", 
            "sectorsize": "4096", 
            "size": "2.73 TB", 
            "support_discard": "0", 
            "vendor": "TOSHIBA", 
            "virtual": 1
        }, 
        "sr0": {
            "holders": [], 
            "host": "SATA controller: Intel Corporation C600/X79 series chipset 6-Port SATA AHCI Controller (rev 05)", 
            "links": {
                "ids": [
                    "ata-PLDS_DVD+_-RW_DH-16AES_PHF8J7363948I525HA00"
                ], 
                "labels": [], 
                "masters": [], 
                "uuids": []
            }, 
            "model": "DVD+-RW DH-16AES", 
            "partitions": {}, 
            "removable": "1", 
            "rotational": "1", 
            "sas_address": null, 
            "sas_device_handle": null, 
            "scheduler_mode": "deadline", 
            "sectors": "2097151", 
            "sectorsize": "512", 
            "size": "1024.00 MB", 
            "support_discard": "0", 
            "vendor": "PLDS", 
            "virtual": 1
        }
    }, 
    "ansible_distribution": "CentOS", 
    "ansible_distribution_file_parsed": true, 
    "ansible_distribution_file_path": "/etc/redhat-release", 
    "ansible_distribution_file_variety": "RedHat", 
    "ansible_distribution_major_version": "7", 
    "ansible_distribution_release": "Core", 
    "ansible_distribution_version": "7.8", 
    "ansible_dns": {
        "nameservers": [
            "172.29.232.1"
        ]
    }, 
    "ansible_domain": "mehar.me", 
    "ansible_effective_group_id": 0, 
    "ansible_effective_user_id": 0, 
    "ansible_em1": {
        "active": true, 
        "device": "em1", 
        "features": {
            "busy_poll": "off [fixed]", 
            "fcoe_mtu": "off [fixed]", 
            "generic_receive_offload": "on", 
            "generic_segmentation_offload": "on", 
            "highdma": "on", 
            "hw_tc_offload": "off [fixed]", 
            "l2_fwd_offload": "off [fixed]", 
            "large_receive_offload": "off [fixed]", 
            "loopback": "off [fixed]", 
            "netns_local": "off [fixed]", 
            "ntuple_filters": "off [fixed]", 
            "receive_hashing": "off [fixed]", 
            "rx_all": "off [fixed]", 
            "rx_checksumming": "on", 
            "rx_fcs": "off [fixed]", 
            "rx_gro_hw": "off [fixed]", 
            "rx_udp_tunnel_port_offload": "off [fixed]", 
            "rx_vlan_filter": "off [fixed]", 
            "rx_vlan_offload": "on [fixed]", 
            "rx_vlan_stag_filter": "off [fixed]", 
            "rx_vlan_stag_hw_parse": "off [fixed]", 
            "scatter_gather": "on", 
            "tcp_segmentation_offload": "on", 
            "tx_checksum_fcoe_crc": "off [fixed]", 
            "tx_checksum_ip_generic": "off [fixed]", 
            "tx_checksum_ipv4": "on", 
            "tx_checksum_ipv6": "on", 
            "tx_checksum_sctp": "off [fixed]", 
            "tx_checksumming": "on", 
            "tx_fcoe_segmentation": "off [fixed]", 
            "tx_gre_csum_segmentation": "off [fixed]", 
            "tx_gre_segmentation": "off [fixed]", 
            "tx_gso_partial": "off [fixed]", 
            "tx_gso_robust": "off [fixed]", 
            "tx_ipip_segmentation": "off [fixed]", 
            "tx_lockless": "off [fixed]", 
            "tx_nocache_copy": "off", 
            "tx_scatter_gather": "on", 
            "tx_scatter_gather_fraglist": "off [fixed]", 
            "tx_sctp_segmentation": "off [fixed]", 
            "tx_sit_segmentation": "off [fixed]", 
            "tx_tcp6_segmentation": "on", 
            "tx_tcp_ecn_segmentation": "on", 
            "tx_tcp_mangleid_segmentation": "off", 
            "tx_tcp_segmentation": "on", 
            "tx_udp_tnl_csum_segmentation": "off [fixed]", 
            "tx_udp_tnl_segmentation": "off [fixed]", 
            "tx_vlan_offload": "on [fixed]", 
            "tx_vlan_stag_hw_insert": "off [fixed]", 
            "udp_fragmentation_offload": "off [fixed]", 
            "vlan_challenged": "off [fixed]"
        }, 
        "hw_timestamp_filters": [
            "none", 
            "ptp_v1_l4_event", 
            "ptp_v2_l4_event", 
            "ptp_v2_l2_event"
        ], 
        "ipv4": {
            "address": "172.29.232.2", 
            "broadcast": "172.29.232.255", 
            "netmask": "255.255.255.0", 
            "network": "172.29.232.0"
        }, 
        "ipv6": [
            {
                "address": "fe80::569f:35ff:fe19:645c", 
                "prefix": "64", 
                "scope": "link"
            }
        ], 
        "macaddress": "54:9f:35:19:64:5c", 
        "module": "tg3", 
        "mtu": 9000, 
        "pciid": "0000:01:00.0", 
        "phc_index": 0, 
        "promisc": false, 
        "speed": 1000, 
        "timestamping": [
            "tx_hardware", 
            "tx_software", 
            "rx_hardware", 
            "rx_software", 
            "software", 
            "raw_hardware"
        ], 
        "type": "ether"
    }, 
    "ansible_em2": {
        "active": false, 
        "device": "em2", 
        "features": {
            "busy_poll": "off [fixed]", 
            "fcoe_mtu": "off [fixed]", 
            "generic_receive_offload": "on", 
            "generic_segmentation_offload": "on", 
            "highdma": "on", 
            "hw_tc_offload": "off [fixed]", 
            "l2_fwd_offload": "off [fixed]", 
            "large_receive_offload": "off [fixed]", 
            "loopback": "off [fixed]", 
            "netns_local": "off [fixed]", 
            "ntuple_filters": "off [fixed]", 
            "receive_hashing": "off [fixed]", 
            "rx_all": "off [fixed]", 
            "rx_checksumming": "on", 
            "rx_fcs": "off [fixed]", 
            "rx_gro_hw": "off [fixed]", 
            "rx_udp_tunnel_port_offload": "off [fixed]", 
            "rx_vlan_filter": "off [fixed]", 
            "rx_vlan_offload": "on [fixed]", 
            "rx_vlan_stag_filter": "off [fixed]", 
            "rx_vlan_stag_hw_parse": "off [fixed]", 
            "scatter_gather": "on", 
            "tcp_segmentation_offload": "on", 
            "tx_checksum_fcoe_crc": "off [fixed]", 
            "tx_checksum_ip_generic": "off [fixed]", 
            "tx_checksum_ipv4": "on", 
            "tx_checksum_ipv6": "on", 
            "tx_checksum_sctp": "off [fixed]", 
            "tx_checksumming": "on", 
            "tx_fcoe_segmentation": "off [fixed]", 
            "tx_gre_csum_segmentation": "off [fixed]", 
            "tx_gre_segmentation": "off [fixed]", 
            "tx_gso_partial": "off [fixed]", 
            "tx_gso_robust": "off [fixed]", 
            "tx_ipip_segmentation": "off [fixed]", 
            "tx_lockless": "off [fixed]", 
            "tx_nocache_copy": "off", 
            "tx_scatter_gather": "on", 
            "tx_scatter_gather_fraglist": "off [fixed]", 
            "tx_sctp_segmentation": "off [fixed]", 
            "tx_sit_segmentation": "off [fixed]", 
            "tx_tcp6_segmentation": "on", 
            "tx_tcp_ecn_segmentation": "on", 
            "tx_tcp_mangleid_segmentation": "off", 
            "tx_tcp_segmentation": "on", 
            "tx_udp_tnl_csum_segmentation": "off [fixed]", 
            "tx_udp_tnl_segmentation": "off [fixed]", 
            "tx_vlan_offload": "on [fixed]", 
            "tx_vlan_stag_hw_insert": "off [fixed]", 
            "udp_fragmentation_offload": "off [fixed]", 
            "vlan_challenged": "off [fixed]"
        }, 
        "hw_timestamp_filters": [
            "none", 
            "ptp_v1_l4_event", 
            "ptp_v2_l4_event", 
            "ptp_v2_l2_event"
        ], 
        "macaddress": "54:9f:35:19:64:5e", 
        "module": "tg3", 
        "mtu": 1500, 
        "pciid": "0000:01:00.1", 
        "phc_index": 1, 
        "promisc": false, 
        "speed": -1, 
        "timestamping": [
            "tx_hardware", 
            "tx_software", 
            "rx_hardware", 
            "rx_software", 
            "software", 
            "raw_hardware"
        ], 
        "type": "ether"
    }, 
    "ansible_env": {
        "HOME": "/root", 
        "LANG": "C", 
        "LC_ALL": "C", 
        "LC_NUMERIC": "C", 
        "LOGNAME": "root", 
        "LS_COLORS": "rs=0:di=38;5;27:ln=38;5;51:mh=44;38;5;15:pi=40;38;5;11:so=38;5;13:do=38;5;5:bd=48;5;232;38;5;11:cd=48;5;232;38;5;3:or=48;5;232;38;5;9:mi=05;48;5;232;38;5;15:su=48;5;196;38;5;15:sg=48;5;11;38;5;16:ca=48;5;196;38;5;226:tw=48;5;10;38;5;16:ow=48;5;10;38;5;21:st=48;5;21;38;5;15:ex=38;5;34:*.tar=38;5;9:*.tgz=38;5;9:*.arc=38;5;9:*.arj=38;5;9:*.taz=38;5;9:*.lha=38;5;9:*.lz4=38;5;9:*.lzh=38;5;9:*.lzma=38;5;9:*.tlz=38;5;9:*.txz=38;5;9:*.tzo=38;5;9:*.t7z=38;5;9:*.zip=38;5;9:*.z=38;5;9:*.Z=38;5;9:*.dz=38;5;9:*.gz=38;5;9:*.lrz=38;5;9:*.lz=38;5;9:*.lzo=38;5;9:*.xz=38;5;9:*.bz2=38;5;9:*.bz=38;5;9:*.tbz=38;5;9:*.tbz2=38;5;9:*.tz=38;5;9:*.deb=38;5;9:*.rpm=38;5;9:*.jar=38;5;9:*.war=38;5;9:*.ear=38;5;9:*.sar=38;5;9:*.rar=38;5;9:*.alz=38;5;9:*.ace=38;5;9:*.zoo=38;5;9:*.cpio=38;5;9:*.7z=38;5;9:*.rz=38;5;9:*.cab=38;5;9:*.jpg=38;5;13:*.jpeg=38;5;13:*.gif=38;5;13:*.bmp=38;5;13:*.pbm=38;5;13:*.pgm=38;5;13:*.ppm=38;5;13:*.tga=38;5;13:*.xbm=38;5;13:*.xpm=38;5;13:*.tif=38;5;13:*.tiff=38;5;13:*.png=38;5;13:*.svg=38;5;13:*.svgz=38;5;13:*.mng=38;5;13:*.pcx=38;5;13:*.mov=38;5;13:*.mpg=38;5;13:*.mpeg=38;5;13:*.m2v=38;5;13:*.mkv=38;5;13:*.webm=38;5;13:*.ogm=38;5;13:*.mp4=38;5;13:*.m4v=38;5;13:*.mp4v=38;5;13:*.vob=38;5;13:*.qt=38;5;13:*.nuv=38;5;13:*.wmv=38;5;13:*.asf=38;5;13:*.rm=38;5;13:*.rmvb=38;5;13:*.flc=38;5;13:*.avi=38;5;13:*.fli=38;5;13:*.flv=38;5;13:*.gl=38;5;13:*.dl=38;5;13:*.xcf=38;5;13:*.xwd=38;5;13:*.yuv=38;5;13:*.cgm=38;5;13:*.emf=38;5;13:*.axv=38;5;13:*.anx=38;5;13:*.ogv=38;5;13:*.ogx=38;5;13:*.aac=38;5;45:*.au=38;5;45:*.flac=38;5;45:*.mid=38;5;45:*.midi=38;5;45:*.mka=38;5;45:*.mp3=38;5;45:*.mpc=38;5;45:*.ogg=38;5;45:*.ra=38;5;45:*.wav=38;5;45:*.axa=38;5;45:*.oga=38;5;45:*.spx=38;5;45:*.xspf=38;5;45:", 
        "MAIL": "/var/mail/aaron", 
        "PATH": "/sbin:/bin:/usr/sbin:/usr/bin", 
        "PWD": "/home/aaron", 
        "SHELL": "/bin/bash", 
        "SHLVL": "1", 
        "SUDO_COMMAND": "/bin/sh -c echo BECOME-SUCCESS-sslkjibwdyvbcgdmxksgnuhaxueiedfv ; /usr/bin/python /home/aaron/.ansible/tmp/ansible-tmp-1594584076.2-30594343702352/AnsiballZ_setup.py", 
        "SUDO_GID": "1000", 
        "SUDO_UID": "1000", 
        "SUDO_USER": "aaron", 
        "TERM": "xterm-256color", 
        "USER": "root", 
        "USERNAME": "root", 
        "XDG_SESSION_ID": "42", 
        "_": "/usr/bin/python"
    }, 
    "ansible_fibre_channel_wwn": [], 
    "ansible_fips": false, 
    "ansible_form_factor": "Main Server Chassis", 
    "ansible_fqdn": "manager.mehar.me", 
    "ansible_hostname": "manager", 
    "ansible_hostnqn": "", 
    "ansible_interfaces": [
        "lo", 
        "em1", 
        "em2"
    ], 
    "ansible_is_chroot": false, 
    "ansible_iscsi_iqn": "", 
    "ansible_kernel": "3.10.0-1062.el7.x86_64", 
    "ansible_kernel_version": "#1 SMP Wed Aug 7 18:08:02 UTC 2019", 
    "ansible_lo": {
        "active": true, 
        "device": "lo", 
        "features": {
            "busy_poll": "off [fixed]", 
            "fcoe_mtu": "off [fixed]", 
            "generic_receive_offload": "on", 
            "generic_segmentation_offload": "on", 
            "highdma": "on [fixed]", 
            "hw_tc_offload": "off [fixed]", 
            "l2_fwd_offload": "off [fixed]", 
            "large_receive_offload": "off [fixed]", 
            "loopback": "on [fixed]", 
            "netns_local": "on [fixed]", 
            "ntuple_filters": "off [fixed]", 
            "receive_hashing": "off [fixed]", 
            "rx_all": "off [fixed]", 
            "rx_checksumming": "on [fixed]", 
            "rx_fcs": "off [fixed]", 
            "rx_gro_hw": "off [fixed]", 
            "rx_udp_tunnel_port_offload": "off [fixed]", 
            "rx_vlan_filter": "off [fixed]", 
            "rx_vlan_offload": "off [fixed]", 
            "rx_vlan_stag_filter": "off [fixed]", 
            "rx_vlan_stag_hw_parse": "off [fixed]", 
            "scatter_gather": "on", 
            "tcp_segmentation_offload": "on", 
            "tx_checksum_fcoe_crc": "off [fixed]", 
            "tx_checksum_ip_generic": "on [fixed]", 
            "tx_checksum_ipv4": "off [fixed]", 
            "tx_checksum_ipv6": "off [fixed]", 
            "tx_checksum_sctp": "on [fixed]", 
            "tx_checksumming": "on", 
            "tx_fcoe_segmentation": "off [fixed]", 
            "tx_gre_csum_segmentation": "off [fixed]", 
            "tx_gre_segmentation": "off [fixed]", 
            "tx_gso_partial": "off [fixed]", 
            "tx_gso_robust": "off [fixed]", 
            "tx_ipip_segmentation": "off [fixed]", 
            "tx_lockless": "on [fixed]", 
            "tx_nocache_copy": "off [fixed]", 
            "tx_scatter_gather": "on [fixed]", 
            "tx_scatter_gather_fraglist": "on [fixed]", 
            "tx_sctp_segmentation": "on", 
            "tx_sit_segmentation": "off [fixed]", 
            "tx_tcp6_segmentation": "on", 
            "tx_tcp_ecn_segmentation": "on", 
            "tx_tcp_mangleid_segmentation": "on", 
            "tx_tcp_segmentation": "on", 
            "tx_udp_tnl_csum_segmentation": "off [fixed]", 
            "tx_udp_tnl_segmentation": "off [fixed]", 
            "tx_vlan_offload": "off [fixed]", 
            "tx_vlan_stag_hw_insert": "off [fixed]", 
            "udp_fragmentation_offload": "on", 
            "vlan_challenged": "on [fixed]"
        }, 
        "hw_timestamp_filters": [], 
        "ipv4": {
            "address": "127.0.0.1", 
            "broadcast": "host", 
            "netmask": "255.0.0.0", 
            "network": "127.0.0.0"
        }, 
        "ipv6": [
            {
                "address": "::1", 
                "prefix": "128", 
                "scope": "host"
            }
        ], 
        "mtu": 65536, 
        "promisc": false, 
        "timestamping": [
            "rx_software", 
            "software"
        ], 
        "type": "loopback"
    }, 
    "ansible_local": {}, 
    "ansible_lsb": {}, 
    "ansible_lvm": {
        "lvs": {
            "home": {
                "size_g": "50.00", 
                "vg": "centos"
            }, 
            "root": {
                "size_g": "50.00", 
                "vg": "centos"
            }, 
            "swap": {
                "size_g": "32.00", 
                "vg": "centos"
            }
        }, 
        "pvs": {
            "/dev/mapper/luks-ccdfd0cd-2af7-4128-9925-44c82e435f85": {
                "free_g": "0.00", 
                "size_g": "132.00", 
                "vg": "centos"
            }
        }, 
        "vgs": {
            "centos": {
                "free_g": "0.00", 
                "num_lvs": "3", 
                "num_pvs": "1", 
                "size_g": "132.00"
            }
        }
    }, 
    "ansible_machine": "x86_64", 
    "ansible_machine_id": "286bd480421f4a0cab1426b7fe8cde0e", 
    "ansible_memfree_mb": 228, 
    "ansible_memory_mb": {
        "nocache": {
            "free": 30499, 
            "used": 1461
        }, 
        "real": {
            "free": 228, 
            "total": 31960, 
            "used": 31732
        }, 
        "swap": {
            "cached": 0, 
            "free": 32767, 
            "total": 32767, 
            "used": 0
        }
    }, 
    "ansible_memtotal_mb": 31960, 
    "ansible_mounts": [
        {
            "block_available": 13092460, 
            "block_size": 4096, 
            "block_total": 13100800, 
            "block_used": 8340, 
            "device": "/dev/mapper/centos-home", 
            "fstype": "xfs", 
            "inode_available": 26214386, 
            "inode_total": 26214400, 
            "inode_used": 14, 
            "mount": "/home", 
            "options": "rw,seclabel,relatime,attr2,inode64,noquota", 
            "size_available": 53626716160, 
            "size_total": 53660876800, 
            "uuid": "8ae96bcc-59ea-4c47-a18a-ba86b90824ca"
        }, 
        {
            "block_available": 213002, 
            "block_size": 4096, 
            "block_total": 259584, 
            "block_used": 46582, 
            "device": "/dev/sda1", 
            "fstype": "xfs", 
            "inode_available": 523955, 
            "inode_total": 524288, 
            "inode_used": 333, 
            "mount": "/boot", 
            "options": "rw,seclabel,relatime,attr2,inode64,noquota", 
            "size_available": 872456192, 
            "size_total": 1063256064, 
            "uuid": "0dd67f0c-c436-41ee-a351-f429f5df6a28"
        }, 
        {
            "block_available": 12641900, 
            "block_size": 4096, 
            "block_total": 13100800, 
            "block_used": 458900, 
            "device": "/dev/mapper/centos-root", 
            "fstype": "xfs", 
            "inode_available": 26178526, 
            "inode_total": 26214400, 
            "inode_used": 35874, 
            "mount": "/", 
            "options": "rw,seclabel,relatime,attr2,inode64,noquota", 
            "size_available": 51781222400, 
            "size_total": 53660876800, 
            "uuid": "4d91caf0-f4ac-48ac-9725-99d04138c32c"
        }, 
        {
            "block_available": 2882940, 
            "block_size": 131072, 
            "block_total": 22892699, 
            "block_used": 20009759, 
            "device": "/dev/sde1", 
            "fstype": "fuseblk", 
            "inode_available": 2882940, 
            "inode_total": 22891999, 
            "inode_used": 20009059, 
            "mount": "/mnt/external", 
            "options": "rw,nosuid,nodev,relatime,user_id=0,group_id=0,default_permissions,allow_other,blksize=4096", 
            "size_available": 377872711680, 
            "size_total": 3000591843328, 
            "uuid": "E4C8-746E"
        }, 
        {
            "block_available": 1846832820, 
            "block_size": 4096, 
            "block_total": 2145210848, 
            "block_used": 298378028, 
            "device": "/dev/sdd1", 
            "fstype": "ext3", 
            "inode_available": 33551603, 
            "inode_total": 33554432, 
            "inode_used": 2829, 
            "mount": "/mnt/drobo", 
            "options": "rw,seclabel,relatime,data=ordered", 
            "size_available": 7564627230720, 
            "size_total": 8786783633408, 
            "uuid": "6fbc08b1-aeac-4fde-9fea-2ef6ff743b63"
        }, 
        {
            "block_available": 1965848759, 
            "block_size": 4096, 
            "block_total": 2440693760, 
            "block_used": 474845001, 
            "device": "/dev/sdb1", 
            "fstype": "xfs", 
            "inode_available": 976346311, 
            "inode_total": 976486144, 
            "inode_used": 139833, 
            "mount": "/data", 
            "options": "rw,seclabel,relatime,attr2,inode64,noquota", 
            "size_available": 8052116516864, 
            "size_total": 9997081640960, 
            "uuid": "5b06276a-b915-4be2-a581-d8044d7b67cd"
        }
    ], 
    "ansible_nodename": "manager.mehar.me", 
    "ansible_os_family": "RedHat", 
    "ansible_pkg_mgr": "yum", 
    "ansible_proc_cmdline": {
        "BOOT_IMAGE": "/vmlinuz-3.10.0-1062.el7.x86_64", 
        "LANG": "en_GB.UTF-8", 
        "crashkernel": "auto", 
        "quiet": true, 
        "rd.luks.uuid": "luks-ccdfd0cd-2af7-4128-9925-44c82e435f85", 
        "rd.lvm.lv": [
            "centos/root", 
            "centos/swap"
        ], 
        "rhgb": true, 
        "ro": true, 
        "root": "/dev/mapper/centos-root"
    }, 
    "ansible_processor": [
        "0", 
        "GenuineIntel", 
        "Intel(R) Xeon(R) CPU E5-2430 v2 @ 2.50GHz", 
        "1", 
        "GenuineIntel", 
        "Intel(R) Xeon(R) CPU E5-2430 v2 @ 2.50GHz", 
        "2", 
        "GenuineIntel", 
        "Intel(R) Xeon(R) CPU E5-2430 v2 @ 2.50GHz", 
        "3", 
        "GenuineIntel", 
        "Intel(R) Xeon(R) CPU E5-2430 v2 @ 2.50GHz", 
        "4", 
        "GenuineIntel", 
        "Intel(R) Xeon(R) CPU E5-2430 v2 @ 2.50GHz", 
        "5", 
        "GenuineIntel", 
        "Intel(R) Xeon(R) CPU E5-2430 v2 @ 2.50GHz", 
        "6", 
        "GenuineIntel", 
        "Intel(R) Xeon(R) CPU E5-2430 v2 @ 2.50GHz", 
        "7", 
        "GenuineIntel", 
        "Intel(R) Xeon(R) CPU E5-2430 v2 @ 2.50GHz", 
        "8", 
        "GenuineIntel", 
        "Intel(R) Xeon(R) CPU E5-2430 v2 @ 2.50GHz", 
        "9", 
        "GenuineIntel", 
        "Intel(R) Xeon(R) CPU E5-2430 v2 @ 2.50GHz", 
        "10", 
        "GenuineIntel", 
        "Intel(R) Xeon(R) CPU E5-2430 v2 @ 2.50GHz", 
        "11", 
        "GenuineIntel", 
        "Intel(R) Xeon(R) CPU E5-2430 v2 @ 2.50GHz"
    ], 
    "ansible_processor_cores": 6, 
    "ansible_processor_count": 1, 
    "ansible_processor_threads_per_core": 2, 
    "ansible_processor_vcpus": 12, 
    "ansible_product_name": "PowerEdge T320", 
    "ansible_product_serial": "7DZCG42", 
    "ansible_product_uuid": "4C4C4544-0044-5A10-8043-B7C04F473432", 
    "ansible_product_version": "NA", 
    "ansible_python": {
        "executable": "/usr/bin/python", 
        "has_sslcontext": true, 
        "type": "CPython", 
        "version": {
            "major": 2, 
            "micro": 5, 
            "minor": 7, 
            "releaselevel": "final", 
            "serial": 0
        }, 
        "version_info": [
            2, 
            7, 
            5, 
            "final", 
            0
        ]
    }, 
    "ansible_python_version": "2.7.5", 
    "ansible_real_group_id": 0, 
    "ansible_real_user_id": 0, 
    "ansible_selinux": {
        "config_mode": "enforcing", 
        "mode": "enforcing", 
        "policyvers": 31, 
        "status": "enabled", 
        "type": "targeted"
    }, 
    "ansible_selinux_python_present": true, 
    "ansible_service_mgr": "systemd", 
    "ansible_ssh_host_key_ecdsa_public": "AAAAE2VjZHNhLXNoYTItbmlzdHAyNTYAAAAIbmlzdHAyNTYAAABBBF7H86b6AICLcb5OwpVgGXXtApUFmmmK2puk42Ksahi0xnUm6FApVION8aGHuJD/KJFMYqQwE2lVrY8rrPMrysM=", 
    "ansible_ssh_host_key_ed25519_public": "AAAAC3NzaC1lZDI1NTE5AAAAIPz+I/Dbruv8VCUFtZjTR2jOAmeqtz53QNc7JdQGIeBV", 
    "ansible_ssh_host_key_rsa_public": "AAAAB3NzaC1yc2EAAAADAQABAAABAQDP1w5nCnBkTv6yU5Al0oNoSDgfTuW/lLUSNs5+7c8xGY5Webo3er+o1qfwM8S05zXUV1TfDuNYbbN007dhUnS4WZtNqtuyFNQ5Pfb9qh/tPcHjO5NyHx37eoiTYlPBwJVapXRETlNOUYXIrTn5lOzGFlExVlQAgmsA67CcEl8swxAPwwvEmj8pGdMx+fQxXtuws3bk3xCmTGVOI/oCzNZpz8SbUAnkUpQ5cx6P3GQuQcmiUInTWdKa1T40IFkcvQG/APcFLONUqp+jCs592SS7kLYlUKCNlDfsJk3zOeb+ypLp5JE8QdPY/6s5gTqT1d9X/bj8WxRMTHR1wkJO1u9V", 
    "ansible_swapfree_mb": 32767, 
    "ansible_swaptotal_mb": 32767, 
    "ansible_system": "Linux", 
    "ansible_system_capabilities": [
        "cap_chown", 
        "cap_dac_override", 
        "cap_dac_read_search", 
        "cap_fowner", 
        "cap_fsetid", 
        "cap_kill", 
        "cap_setgid", 
        "cap_setuid", 
        "cap_setpcap", 
        "cap_linux_immutable", 
        "cap_net_bind_service", 
        "cap_net_broadcast", 
        "cap_net_admin", 
        "cap_net_raw", 
        "cap_ipc_lock", 
        "cap_ipc_owner", 
        "cap_sys_module", 
        "cap_sys_rawio", 
        "cap_sys_chroot", 
        "cap_sys_ptrace", 
        "cap_sys_pacct", 
        "cap_sys_admin", 
        "cap_sys_boot", 
        "cap_sys_nice", 
        "cap_sys_resource", 
        "cap_sys_time", 
        "cap_sys_tty_config", 
        "cap_mknod", 
        "cap_lease", 
        "cap_audit_write", 
        "cap_audit_control", 
        "cap_setfcap", 
        "cap_mac_override", 
        "cap_mac_admin", 
        "cap_syslog", 
        "35", 
        "36+ep"
    ], 
    "ansible_system_capabilities_enforced": "True", 
    "ansible_system_vendor": "Dell Inc.", 
    "ansible_uptime_seconds": 90671, 
    "ansible_user_dir": "/root", 
    "ansible_user_gecos": "root", 
    "ansible_user_gid": 0, 
    "ansible_user_id": "root", 
    "ansible_user_shell": "/bin/bash", 
    "ansible_user_uid": 0, 
    "ansible_userspace_architecture": "x86_64", 
    "ansible_userspace_bits": "64", 
    "ansible_virtualization_role": "host", 
    "ansible_virtualization_type": "kvm", 
    "discovered_interpreter_python": "/usr/bin/python", 
    "gather_subset": [
        "all"
    ], 
    "module_setup": true
}