{
    "_ansible_facts_gathered": true, 
    "ansible_all_ipv4_addresses": [
        "172.29.232.3"
    ], 
    "ansible_all_ipv6_addresses": [
        "fe80::5054:ebff:fe0a:3dab"
    ], 
    "ansible_apparmor": {
        "status": "disabled"
    }, 
    "ansible_architecture": "x86_64", 
    "ansible_bios_date": "01/01/2011", 
    "ansible_bios_version": "0.5.1", 
    "ansible_cmdline": {
        "BOOT_IMAGE": "/vmlinuz-3.10.0-1127.el7.x86_64", 
        "LANG": "en_GB.UTF-8", 
        "crashkernel": "auto", 
        "quiet": true, 
        "rd.lvm.lv": "centos/swap", 
        "rhgb": true, 
        "ro": true, 
        "root": "/dev/mapper/centos-root"
    }, 
    "ansible_date_time": {
        "date": "2020-07-20", 
        "day": "20", 
        "epoch": "1595235178", 
        "hour": "09", 
        "iso8601": "2020-07-20T08:52:58Z", 
        "iso8601_basic": "20200720T095258921632", 
        "iso8601_basic_short": "20200720T095258", 
        "iso8601_micro": "2020-07-20T08:52:58.921855Z", 
        "minute": "52", 
        "month": "07", 
        "second": "58", 
        "time": "09:52:58", 
        "tz": "BST", 
        "tz_offset": "+0100", 
        "weekday": "Monday", 
        "weekday_number": "1", 
        "weeknumber": "29", 
        "year": "2020"
    }, 
    "ansible_default_ipv4": {
        "address": "172.29.232.3", 
        "alias": "ens3", 
        "broadcast": "172.29.255.255", 
        "gateway": "172.29.232.1", 
        "interface": "ens3", 
        "macaddress": "52:54:eb:0a:3d:ab", 
        "mtu": 1500, 
        "netmask": "255.255.0.0", 
        "network": "172.29.0.0", 
        "type": "ether"
    }, 
    "ansible_default_ipv6": {}, 
    "ansible_device_links": {
        "ids": {
            "dm-0": [
                "dm-name-centos-root", 
                "dm-uuid-LVM-v8BQ3gk0c2rWtoBmiCw6hx5CcbyibBsj2m1dqh1x4szW3IldZuL68jugxFrSRYiQ"
            ], 
            "dm-1": [
                "dm-name-centos-swap", 
                "dm-uuid-LVM-v8BQ3gk0c2rWtoBmiCw6hx5CcbyibBsjIoaBrBI9FY2w2a1ZjuR6HYm2tlz2cXKm"
            ], 
            "sr0": [
                "ata-QEMU_DVD-ROM_QM00001"
            ], 
            "vda2": [
                "lvm-pv-uuid-ntaVwc-ixDo-e1XH-LvTS-34b5-HX86-pggB4n"
            ]
        }, 
        "labels": {}, 
        "masters": {
            "vda2": [
                "dm-0", 
                "dm-1"
            ]
        }, 
        "uuids": {
            "dm-0": [
                "06f1819d-33e3-43a3-ab15-ec18868ce314"
            ], 
            "dm-1": [
                "30090d11-948a-421b-a34e-09160b38fe47"
            ], 
            "vda1": [
                "904a3e0a-2dc7-45c6-9f70-311637bf88b7"
            ]
        }
    }, 
    "ansible_devices": {
        "dm-0": {
            "holders": [], 
            "host": "", 
            "links": {
                "ids": [
                    "dm-name-centos-root", 
                    "dm-uuid-LVM-v8BQ3gk0c2rWtoBmiCw6hx5CcbyibBsj2m1dqh1x4szW3IldZuL68jugxFrSRYiQ"
                ], 
                "labels": [], 
                "masters": [], 
                "uuids": [
                    "06f1819d-33e3-43a3-ab15-ec18868ce314"
                ]
            }, 
            "model": null, 
            "partitions": {}, 
            "removable": "0", 
            "rotational": "1", 
            "sas_address": null, 
            "sas_device_handle": null, 
            "scheduler_mode": "", 
            "sectors": "77578240", 
            "sectorsize": "512", 
            "size": "36.99 GB", 
            "support_discard": "0", 
            "vendor": null, 
            "virtual": 1
        }, 
        "dm-1": {
            "holders": [], 
            "host": "", 
            "links": {
                "ids": [
                    "dm-name-centos-swap", 
                    "dm-uuid-LVM-v8BQ3gk0c2rWtoBmiCw6hx5CcbyibBsjIoaBrBI9FY2w2a1ZjuR6HYm2tlz2cXKm"
                ], 
                "labels": [], 
                "masters": [], 
                "uuids": [
                    "30090d11-948a-421b-a34e-09160b38fe47"
                ]
            }, 
            "model": null, 
            "partitions": {}, 
            "removable": "0", 
            "rotational": "1", 
            "sas_address": null, 
            "sas_device_handle": null, 
            "scheduler_mode": "", 
            "sectors": "4194304", 
            "sectorsize": "512", 
            "size": "2.00 GB", 
            "support_discard": "0", 
            "vendor": null, 
            "virtual": 1
        }, 
        "sr0": {
            "holders": [], 
            "host": "", 
            "links": {
                "ids": [
                    "ata-QEMU_DVD-ROM_QM00001"
                ], 
                "labels": [], 
                "masters": [], 
                "uuids": []
            }, 
            "model": "QEMU DVD-ROM", 
            "partitions": {}, 
            "removable": "1", 
            "rotational": "1", 
            "sas_address": null, 
            "sas_device_handle": null, 
            "scheduler_mode": "deadline", 
            "sectors": "2097151", 
            "sectorsize": "512", 
            "size": "1024.00 MB", 
            "support_discard": "0", 
            "vendor": "QEMU", 
            "virtual": 1
        }, 
        "vda": {
            "holders": [], 
            "host": "", 
            "links": {
                "ids": [], 
                "labels": [], 
                "masters": [], 
                "uuids": []
            }, 
            "model": null, 
            "partitions": {
                "vda1": {
                    "holders": [], 
                    "links": {
                        "ids": [], 
                        "labels": [], 
                        "masters": [], 
                        "uuids": [
                            "904a3e0a-2dc7-45c6-9f70-311637bf88b7"
                        ]
                    }, 
                    "sectors": "2097152", 
                    "sectorsize": 512, 
                    "size": "1.00 GB", 
                    "start": "2048", 
                    "uuid": "904a3e0a-2dc7-45c6-9f70-311637bf88b7"
                }, 
                "vda2": {
                    "holders": [
                        "centos-root", 
                        "centos-swap"
                    ], 
                    "links": {
                        "ids": [
                            "lvm-pv-uuid-ntaVwc-ixDo-e1XH-LvTS-34b5-HX86-pggB4n"
                        ], 
                        "labels": [], 
                        "masters": [
                            "dm-0", 
                            "dm-1"
                        ], 
                        "uuids": []
                    }, 
                    "sectors": "81786880", 
                    "sectorsize": 512, 
                    "size": "39.00 GB", 
                    "start": "2099200", 
                    "uuid": null
                }
            }, 
            "removable": "0", 
            "rotational": "1", 
            "sas_address": null, 
            "sas_device_handle": null, 
            "scheduler_mode": "mq-deadline", 
            "sectors": "83886080", 
            "sectorsize": "512", 
            "size": "40.00 GB", 
            "support_discard": "0", 
            "vendor": "0x1af4", 
            "virtual": 1
        }
    }, 
    "ansible_distribution": "CentOS", 
    "ansible_distribution_file_parsed": true, 
    "ansible_distribution_file_path": "/etc/redhat-release", 
    "ansible_distribution_file_variety": "RedHat", 
    "ansible_distribution_major_version": "7", 
    "ansible_distribution_release": "Core", 
    "ansible_distribution_version": "7.8", 
    "ansible_dns": {}, 
    "ansible_domain": "mehar.me", 
    "ansible_effective_group_id": 0, 
    "ansible_effective_user_id": 0, 
    "ansible_ens3": {
        "active": true, 
        "device": "ens3", 
        "features": {
            "busy_poll": "off [fixed]", 
            "fcoe_mtu": "off [fixed]", 
            "generic_receive_offload": "on", 
            "generic_segmentation_offload": "off [requested on]", 
            "highdma": "on [fixed]", 
            "hw_tc_offload": "off [fixed]", 
            "l2_fwd_offload": "off [fixed]", 
            "large_receive_offload": "off [fixed]", 
            "loopback": "off [fixed]", 
            "netns_local": "off [fixed]", 
            "ntuple_filters": "off [fixed]", 
            "receive_hashing": "off [fixed]", 
            "rx_all": "off [fixed]", 
            "rx_checksumming": "on", 
            "rx_fcs": "off [fixed]", 
            "rx_gro_hw": "off [fixed]", 
            "rx_udp_tunnel_port_offload": "off [fixed]", 
            "rx_vlan_filter": "off [fixed]", 
            "rx_vlan_offload": "on", 
            "rx_vlan_stag_filter": "off [fixed]", 
            "rx_vlan_stag_hw_parse": "off [fixed]", 
            "scatter_gather": "off", 
            "tcp_segmentation_offload": "off", 
            "tx_checksum_fcoe_crc": "off [fixed]", 
            "tx_checksum_ip_generic": "off [fixed]", 
            "tx_checksum_ipv4": "off", 
            "tx_checksum_ipv6": "off [fixed]", 
            "tx_checksum_sctp": "off [fixed]", 
            "tx_checksumming": "off", 
            "tx_fcoe_segmentation": "off [fixed]", 
            "tx_gre_csum_segmentation": "off [fixed]", 
            "tx_gre_segmentation": "off [fixed]", 
            "tx_gso_partial": "off [fixed]", 
            "tx_gso_robust": "off [fixed]", 
            "tx_ipip_segmentation": "off [fixed]", 
            "tx_lockless": "off [fixed]", 
            "tx_nocache_copy": "off", 
            "tx_scatter_gather": "off", 
            "tx_scatter_gather_fraglist": "off [fixed]", 
            "tx_sctp_segmentation": "off [fixed]", 
            "tx_sit_segmentation": "off [fixed]", 
            "tx_tcp6_segmentation": "off [fixed]", 
            "tx_tcp_ecn_segmentation": "off [fixed]", 
            "tx_tcp_mangleid_segmentation": "off", 
            "tx_tcp_segmentation": "off", 
            "tx_udp_tnl_csum_segmentation": "off [fixed]", 
            "tx_udp_tnl_segmentation": "off [fixed]", 
            "tx_vlan_offload": "on", 
            "tx_vlan_stag_hw_insert": "off [fixed]", 
            "udp_fragmentation_offload": "off [fixed]", 
            "vlan_challenged": "off [fixed]"
        }, 
        "hw_timestamp_filters": [], 
        "ipv4": {
            "address": "172.29.232.3", 
            "broadcast": "172.29.255.255", 
            "netmask": "255.255.0.0", 
            "network": "172.29.0.0"
        }, 
        "ipv6": [
            {
                "address": "fe80::5054:ebff:fe0a:3dab", 
                "prefix": "64", 
                "scope": "link"
            }
        ], 
        "macaddress": "52:54:eb:0a:3d:ab", 
        "module": "8139cp", 
        "mtu": 1500, 
        "pciid": "0000:00:03.0", 
        "promisc": false, 
        "speed": 100, 
        "timestamping": [
            "rx_software", 
            "software"
        ], 
        "type": "ether"
    }, 
    "ansible_env": {
        "HOME": "/root", 
        "LANG": "en_GB.UTF-8", 
        "LESSOPEN": "||/usr/bin/lesspipe.sh %s", 
        "LOGNAME": "root", 
        "LS_COLORS": "rs=0:di=38;5;27:ln=38;5;51:mh=44;38;5;15:pi=40;38;5;11:so=38;5;13:do=38;5;5:bd=48;5;232;38;5;11:cd=48;5;232;38;5;3:or=48;5;232;38;5;9:mi=05;48;5;232;38;5;15:su=48;5;196;38;5;15:sg=48;5;11;38;5;16:ca=48;5;196;38;5;226:tw=48;5;10;38;5;16:ow=48;5;10;38;5;21:st=48;5;21;38;5;15:ex=38;5;34:*.tar=38;5;9:*.tgz=38;5;9:*.arc=38;5;9:*.arj=38;5;9:*.taz=38;5;9:*.lha=38;5;9:*.lz4=38;5;9:*.lzh=38;5;9:*.lzma=38;5;9:*.tlz=38;5;9:*.txz=38;5;9:*.tzo=38;5;9:*.t7z=38;5;9:*.zip=38;5;9:*.z=38;5;9:*.Z=38;5;9:*.dz=38;5;9:*.gz=38;5;9:*.lrz=38;5;9:*.lz=38;5;9:*.lzo=38;5;9:*.xz=38;5;9:*.bz2=38;5;9:*.bz=38;5;9:*.tbz=38;5;9:*.tbz2=38;5;9:*.tz=38;5;9:*.deb=38;5;9:*.rpm=38;5;9:*.jar=38;5;9:*.war=38;5;9:*.ear=38;5;9:*.sar=38;5;9:*.rar=38;5;9:*.alz=38;5;9:*.ace=38;5;9:*.zoo=38;5;9:*.cpio=38;5;9:*.7z=38;5;9:*.rz=38;5;9:*.cab=38;5;9:*.jpg=38;5;13:*.jpeg=38;5;13:*.gif=38;5;13:*.bmp=38;5;13:*.pbm=38;5;13:*.pgm=38;5;13:*.ppm=38;5;13:*.tga=38;5;13:*.xbm=38;5;13:*.xpm=38;5;13:*.tif=38;5;13:*.tiff=38;5;13:*.png=38;5;13:*.svg=38;5;13:*.svgz=38;5;13:*.mng=38;5;13:*.pcx=38;5;13:*.mov=38;5;13:*.mpg=38;5;13:*.mpeg=38;5;13:*.m2v=38;5;13:*.mkv=38;5;13:*.webm=38;5;13:*.ogm=38;5;13:*.mp4=38;5;13:*.m4v=38;5;13:*.mp4v=38;5;13:*.vob=38;5;13:*.qt=38;5;13:*.nuv=38;5;13:*.wmv=38;5;13:*.asf=38;5;13:*.rm=38;5;13:*.rmvb=38;5;13:*.flc=38;5;13:*.avi=38;5;13:*.fli=38;5;13:*.flv=38;5;13:*.gl=38;5;13:*.dl=38;5;13:*.xcf=38;5;13:*.xwd=38;5;13:*.yuv=38;5;13:*.cgm=38;5;13:*.emf=38;5;13:*.axv=38;5;13:*.anx=38;5;13:*.ogv=38;5;13:*.ogx=38;5;13:*.aac=38;5;45:*.au=38;5;45:*.flac=38;5;45:*.mid=38;5;45:*.midi=38;5;45:*.mka=38;5;45:*.mp3=38;5;45:*.mpc=38;5;45:*.ogg=38;5;45:*.ra=38;5;45:*.wav=38;5;45:*.axa=38;5;45:*.oga=38;5;45:*.spx=38;5;45:*.xspf=38;5;45:", 
        "MAIL": "/var/mail/root", 
        "PATH": "/usr/local/sbin:/usr/local/bin:/usr/sbin:/usr/bin", 
        "PWD": "/root", 
        "SELINUX_LEVEL_REQUESTED": "", 
        "SELINUX_ROLE_REQUESTED": "", 
        "SELINUX_USE_CURRENT_RANGE": "", 
        "SHELL": "/bin/bash", 
        "SHLVL": "2", 
        "SSH_CLIENT": "172.29.232.38 51542 22", 
        "SSH_CONNECTION": "172.29.232.38 51542 172.29.232.3 22", 
        "SSH_TTY": "/dev/pts/0", 
        "TERM": "xterm-256color", 
        "USER": "root", 
        "XDG_RUNTIME_DIR": "/run/user/0", 
        "XDG_SESSION_ID": "3", 
        "_": "/usr/bin/python"
    }, 
    "ansible_fibre_channel_wwn": [], 
    "ansible_fips": false, 
    "ansible_form_factor": "Other", 
    "ansible_fqdn": "manager.mehar.me", 
    "ansible_hostname": "manager", 
    "ansible_hostnqn": "", 
    "ansible_interfaces": [
        "lo", 
        "ens3"
    ], 
    "ansible_is_chroot": false, 
    "ansible_iscsi_iqn": "", 
    "ansible_kernel": "3.10.0-1127.el7.x86_64", 
    "ansible_kernel_version": "#1 SMP Tue Mar 31 23:36:51 UTC 2020", 
    "ansible_lo": {
        "active": true, 
        "device": "lo", 
        "features": {
            "busy_poll": "off [fixed]", 
            "fcoe_mtu": "off [fixed]", 
            "generic_receive_offload": "on", 
            "generic_segmentation_offload": "on", 
            "highdma": "on [fixed]", 
            "hw_tc_offload": "off [fixed]", 
            "l2_fwd_offload": "off [fixed]", 
            "large_receive_offload": "off [fixed]", 
            "loopback": "on [fixed]", 
            "netns_local": "on [fixed]", 
            "ntuple_filters": "off [fixed]", 
            "receive_hashing": "off [fixed]", 
            "rx_all": "off [fixed]", 
            "rx_checksumming": "on [fixed]", 
            "rx_fcs": "off [fixed]", 
            "rx_gro_hw": "off [fixed]", 
            "rx_udp_tunnel_port_offload": "off [fixed]", 
            "rx_vlan_filter": "off [fixed]", 
            "rx_vlan_offload": "off [fixed]", 
            "rx_vlan_stag_filter": "off [fixed]", 
            "rx_vlan_stag_hw_parse": "off [fixed]", 
            "scatter_gather": "on", 
            "tcp_segmentation_offload": "on", 
            "tx_checksum_fcoe_crc": "off [fixed]", 
            "tx_checksum_ip_generic": "on [fixed]", 
            "tx_checksum_ipv4": "off [fixed]", 
            "tx_checksum_ipv6": "off [fixed]", 
            "tx_checksum_sctp": "on [fixed]", 
            "tx_checksumming": "on", 
            "tx_fcoe_segmentation": "off [fixed]", 
            "tx_gre_csum_segmentation": "off [fixed]", 
            "tx_gre_segmentation": "off [fixed]", 
            "tx_gso_partial": "off [fixed]", 
            "tx_gso_robust": "off [fixed]", 
            "tx_ipip_segmentation": "off [fixed]", 
            "tx_lockless": "on [fixed]", 
            "tx_nocache_copy": "off [fixed]", 
            "tx_scatter_gather": "on [fixed]", 
            "tx_scatter_gather_fraglist": "on [fixed]", 
            "tx_sctp_segmentation": "on", 
            "tx_sit_segmentation": "off [fixed]", 
            "tx_tcp6_segmentation": "on", 
            "tx_tcp_ecn_segmentation": "on", 
            "tx_tcp_mangleid_segmentation": "on", 
            "tx_tcp_segmentation": "on", 
            "tx_udp_tnl_csum_segmentation": "off [fixed]", 
            "tx_udp_tnl_segmentation": "off [fixed]", 
            "tx_vlan_offload": "off [fixed]", 
            "tx_vlan_stag_hw_insert": "off [fixed]", 
            "udp_fragmentation_offload": "on", 
            "vlan_challenged": "on [fixed]"
        }, 
        "hw_timestamp_filters": [], 
        "ipv4": {
            "address": "127.0.0.1", 
            "broadcast": "host", 
            "netmask": "255.0.0.0", 
            "network": "127.0.0.0"
        }, 
        "ipv6": [
            {
                "address": "::1", 
                "prefix": "128", 
                "scope": "host"
            }
        ], 
        "mtu": 65536, 
        "promisc": false, 
        "timestamping": [
            "rx_software", 
            "software"
        ], 
        "type": "loopback"
    }, 
    "ansible_local": {}, 
    "ansible_lsb": {}, 
    "ansible_lvm": {
        "lvs": {
            "root": {
                "size_g": "36.99", 
                "vg": "centos"
            }, 
            "swap": {
                "size_g": "2.00", 
                "vg": "centos"
            }
        }, 
        "pvs": {
            "/dev/vda2": {
                "free_g": "0.00", 
                "size_g": "39.00", 
                "vg": "centos"
            }
        }, 
        "vgs": {
            "centos": {
                "free_g": "0.00", 
                "num_lvs": "2", 
                "num_pvs": "1", 
                "size_g": "39.00"
            }
        }
    }, 
    "ansible_machine": "x86_64", 
    "ansible_machine_id": "92fe2e487f78423b8fbaba059566e6e6", 
    "ansible_memfree_mb": 1565, 
    "ansible_memory_mb": {
        "nocache": {
            "free": 1679, 
            "used": 159
        }, 
        "real": {
            "free": 1565, 
            "total": 1838, 
            "used": 273
        }, 
        "swap": {
            "cached": 0, 
            "free": 2047, 
            "total": 2047, 
            "used": 0
        }
    }, 
    "ansible_memtotal_mb": 1838, 
    "ansible_mounts": [
        {
            "block_available": 221263, 
            "block_size": 4096, 
            "block_total": 259584, 
            "block_used": 38321, 
            "device": "/dev/vda1", 
            "fstype": "xfs", 
            "inode_available": 523961, 
            "inode_total": 524288, 
            "inode_used": 327, 
            "mount": "/boot", 
            "options": "rw,seclabel,relatime,attr2,inode64,noquota", 
            "size_available": 906293248, 
            "size_total": 1063256064, 
            "uuid": "904a3e0a-2dc7-45c6-9f70-311637bf88b7"
        }, 
        {
            "block_available": 9379736, 
            "block_size": 4096, 
            "block_total": 9692545, 
            "block_used": 312809, 
            "device": "/dev/mapper/centos-root", 
            "fstype": "xfs", 
            "inode_available": 19367541, 
            "inode_total": 19394560, 
            "inode_used": 27019, 
            "mount": "/", 
            "options": "rw,seclabel,relatime,attr2,inode64,noquota", 
            "size_available": 38419398656, 
            "size_total": 39700664320, 
            "uuid": "06f1819d-33e3-43a3-ab15-ec18868ce314"
        }
    ], 
    "ansible_nodename": "manager.mehar.me", 
    "ansible_os_family": "RedHat", 
    "ansible_pkg_mgr": "yum", 
    "ansible_proc_cmdline": {
        "BOOT_IMAGE": "/vmlinuz-3.10.0-1127.el7.x86_64", 
        "LANG": "en_GB.UTF-8", 
        "crashkernel": "auto", 
        "quiet": true, 
        "rd.lvm.lv": [
            "centos/root", 
            "centos/swap"
        ], 
        "rhgb": true, 
        "ro": true, 
        "root": "/dev/mapper/centos-root"
    }, 
    "ansible_processor": [
        "0", 
        "GenuineIntel", 
        "Intel Xeon E3-12xx v2 (Ivy Bridge, IBRS)"
    ], 
    "ansible_processor_cores": 1, 
    "ansible_processor_count": 1, 
    "ansible_processor_threads_per_core": 1, 
    "ansible_processor_vcpus": 1, 
    "ansible_product_name": "KVM", 
    "ansible_product_serial": "NA", 
    "ansible_product_uuid": "92FE2E48-7F78-423B-8FBA-BA059566E6E6", 
    "ansible_product_version": "RHEL 7.0.0 PC (i440FX + PIIX, 1996)", 
    "ansible_python": {
        "executable": "/usr/bin/python", 
        "has_sslcontext": true, 
        "type": "CPython", 
        "version": {
            "major": 2, 
            "micro": 5, 
            "minor": 7, 
            "releaselevel": "final", 
            "serial": 0
        }, 
        "version_info": [
            2, 
            7, 
            5, 
            "final", 
            0
        ]
    }, 
    "ansible_python_version": "2.7.5", 
    "ansible_real_group_id": 0, 
    "ansible_real_user_id": 0, 
    "ansible_selinux": {
        "config_mode": "enforcing", 
        "mode": "enforcing", 
        "policyvers": 31, 
        "status": "enabled", 
        "type": "targeted"
    }, 
    "ansible_selinux_python_present": true, 
    "ansible_service_mgr": "systemd", 
    "ansible_ssh_host_key_ecdsa_public": "AAAAE2VjZHNhLXNoYTItbmlzdHAyNTYAAAAIbmlzdHAyNTYAAABBBAM+1bmhlnoOBdVN0PwSslvudC3b95JfCfgXgYQllhtY0nPTw5P00bgJVZ6qzqq9HVIk7+SGmScuLiCZcM30UGs=", 
    "ansible_ssh_host_key_ed25519_public": "AAAAC3NzaC1lZDI1NTE5AAAAIAI122Yk5apbjHY3ooj9a2Vw//Gxq0zK60rr36e5HkYk", 
    "ansible_ssh_host_key_rsa_public": "AAAAB3NzaC1yc2EAAAADAQABAAABAQCh6TYzDzau59dy/zaUEgdrPbHgvXLhDmXovDjR/tnXtL3j+4EjLHzGaNE4779Zvj+307vImXazRuISkoigfbFoOvUgIGIFg81scgScumzs6Qadj+mFyG9tGXPnU//AgfbOdXiDe4z8yd8kD90/r/jFS0c0tdi9R0GaTtc0W1srEZNy/3swSnUYd45FDcJUVcH/3sOGJZUOiIi4ks4UbAuZ2fCGBHViJo7FvXxLQTPsaw4qBznRZ4vJir1pmIIifRU/M/ZFqOzgdqcbQA7jz6z11j5R5H/orsBLA/HNJ5F0gDbYQgDcIHmIS0bcHAbUeqmOXN/qZasdRVOM8tpFTi8p", 
    "ansible_swapfree_mb": 2047, 
    "ansible_swaptotal_mb": 2047, 
    "ansible_system": "Linux", 
    "ansible_system_capabilities": [
        "cap_chown", 
        "cap_dac_override", 
        "cap_dac_read_search", 
        "cap_fowner", 
        "cap_fsetid", 
        "cap_kill", 
        "cap_setgid", 
        "cap_setuid", 
        "cap_setpcap", 
        "cap_linux_immutable", 
        "cap_net_bind_service", 
        "cap_net_broadcast", 
        "cap_net_admin", 
        "cap_net_raw", 
        "cap_ipc_lock", 
        "cap_ipc_owner", 
        "cap_sys_module", 
        "cap_sys_rawio", 
        "cap_sys_chroot", 
        "cap_sys_ptrace", 
        "cap_sys_pacct", 
        "cap_sys_admin", 
        "cap_sys_boot", 
        "cap_sys_nice", 
        "cap_sys_resource", 
        "cap_sys_time", 
        "cap_sys_tty_config", 
        "cap_mknod", 
        "cap_lease", 
        "cap_audit_write", 
        "cap_audit_control", 
        "cap_setfcap", 
        "cap_mac_override", 
        "cap_mac_admin", 
        "cap_syslog", 
        "35", 
        "36+ep"
    ], 
    "ansible_system_capabilities_enforced": "True", 
    "ansible_system_vendor": "Red Hat", 
    "ansible_uptime_seconds": 384, 
    "ansible_user_dir": "/root", 
    "ansible_user_gecos": "root", 
    "ansible_user_gid": 0, 
    "ansible_user_id": "root", 
    "ansible_user_shell": "/bin/bash", 
    "ansible_user_uid": 0, 
    "ansible_userspace_architecture": "x86_64", 
    "ansible_userspace_bits": "64", 
    "ansible_virtualization_role": "guest", 
    "ansible_virtualization_type": "kvm", 
    "discovered_interpreter_python": "/usr/bin/python", 
    "gather_subset": [
        "all"
    ], 
    "module_setup": true
}