{
    "_ansible_facts_gathered": true, 
    "ansible_all_ipv4_addresses": [
        "172.29.232.3"
    ], 
    "ansible_all_ipv6_addresses": [
        "fe80::3044:5ad3:7e2b:1df7"
    ], 
    "ansible_apparmor": {
        "status": "disabled"
    }, 
    "ansible_architecture": "x86_64", 
    "ansible_bios_date": "12/01/2006", 
    "ansible_bios_version": "VirtualBox", 
    "ansible_cmdline": {
        "BOOT_IMAGE": "(hd0,msdos1)/vmlinuz-4.18.0-147.el8.x86_64", 
        "crashkernel": "auto", 
        "quiet": true, 
        "rd.lvm.lv": "cl/swap", 
        "resume": "/dev/mapper/cl-swap", 
        "rhgb": true, 
        "ro": true, 
        "root": "/dev/mapper/cl-root"
    }, 
    "ansible_date_time": {
        "date": "2020-07-19", 
        "day": "19", 
        "epoch": "1595180682", 
        "hour": "13", 
        "iso8601": "2020-07-19T17:44:42Z", 
        "iso8601_basic": "20200719T134442461211", 
        "iso8601_basic_short": "20200719T134442", 
        "iso8601_micro": "2020-07-19T17:44:42.461268Z", 
        "minute": "44", 
        "month": "07", 
        "second": "42", 
        "time": "13:44:42", 
        "tz": "EDT", 
        "tz_offset": "-0400", 
        "weekday": "Sunday", 
        "weekday_number": "0", 
        "weeknumber": "28", 
        "year": "2020"
    }, 
    "ansible_default_ipv4": {
        "address": "172.29.232.3", 
        "alias": "enp0s3", 
        "broadcast": "172.29.255.255", 
        "gateway": "172.29.232.1", 
        "interface": "enp0s3", 
        "macaddress": "08:00:27:05:9f:8e", 
        "mtu": 1500, 
        "netmask": "255.255.0.0", 
        "network": "172.29.0.0", 
        "type": "ether"
    }, 
    "ansible_default_ipv6": {}, 
    "ansible_device_links": {
        "ids": {
            "dm-0": [
                "dm-name-cl-root", 
                "dm-uuid-LVM-mkuXHteSAX9BPUXUH05ms9Pp3YjTlzQ0rQwxMrEinenVTZ8HZYaJb0owfAt9Alcm"
            ], 
            "dm-1": [
                "dm-name-cl-swap", 
                "dm-uuid-LVM-mkuXHteSAX9BPUXUH05ms9Pp3YjTlzQ0Axd2UE6lkkg2UobEzIbCBiGta4QBptPO"
            ], 
            "dm-2": [
                "dm-name-cl-home", 
                "dm-uuid-LVM-mkuXHteSAX9BPUXUH05ms9Pp3YjTlzQ0Xc4RyIETnyseib21P1DCBFnMzqttd2eL"
            ], 
            "sda": [
                "ata-VBOX_HARDDISK_VB56b1dd4a-69dbf973"
            ], 
            "sda1": [
                "ata-VBOX_HARDDISK_VB56b1dd4a-69dbf973-part1"
            ], 
            "sda2": [
                "ata-VBOX_HARDDISK_VB56b1dd4a-69dbf973-part2", 
                "lvm-pv-uuid-2b23QQ-pAB9-oCx5-6OJa-xCpu-hxnq-mwC97D"
            ], 
            "sr0": [
                "ata-VBOX_CD-ROM_VB2-01700376"
            ]
        }, 
        "labels": {
            "sr0": [
                "CentOS-8-1-1911-x86_64-dvd"
            ]
        }, 
        "masters": {
            "sda2": [
                "dm-0", 
                "dm-1", 
                "dm-2"
            ]
        }, 
        "uuids": {
            "dm-0": [
                "3e92a425-809e-4a62-afed-5570b0b07adc"
            ], 
            "dm-1": [
                "28b200a1-7b02-4f34-91cf-1876e7ba026f"
            ], 
            "dm-2": [
                "2991af9b-9a0d-41b4-831f-a4ae9e70df42"
            ], 
            "sda1": [
                "914315e2-31e9-4f50-aee3-f8f4852db5b5"
            ], 
            "sr0": [
                "2020-01-03-21-42-40-00"
            ]
        }
    }, 
    "ansible_devices": {
        "dm-0": {
            "holders": [], 
            "host": "", 
            "links": {
                "ids": [
                    "dm-name-cl-root", 
                    "dm-uuid-LVM-mkuXHteSAX9BPUXUH05ms9Pp3YjTlzQ0rQwxMrEinenVTZ8HZYaJb0owfAt9Alcm"
                ], 
                "labels": [], 
                "masters": [], 
                "uuids": [
                    "3e92a425-809e-4a62-afed-5570b0b07adc"
                ]
            }, 
            "model": null, 
            "partitions": {}, 
            "removable": "0", 
            "rotational": "1", 
            "sas_address": null, 
            "sas_device_handle": null, 
            "scheduler_mode": "", 
            "sectors": "104857600", 
            "sectorsize": "512", 
            "serial": "VB56b1dd4a", 
            "size": "50.00 GB", 
            "support_discard": "0", 
            "vendor": null, 
            "virtual": 1
        }, 
        "dm-1": {
            "holders": [], 
            "host": "", 
            "links": {
                "ids": [
                    "dm-name-cl-swap", 
                    "dm-uuid-LVM-mkuXHteSAX9BPUXUH05ms9Pp3YjTlzQ0Axd2UE6lkkg2UobEzIbCBiGta4QBptPO"
                ], 
                "labels": [], 
                "masters": [], 
                "uuids": [
                    "28b200a1-7b02-4f34-91cf-1876e7ba026f"
                ]
            }, 
            "model": null, 
            "partitions": {}, 
            "removable": "0", 
            "rotational": "1", 
            "sas_address": null, 
            "sas_device_handle": null, 
            "scheduler_mode": "", 
            "sectors": "8339456", 
            "sectorsize": "512", 
            "serial": "VB56b1dd4a", 
            "size": "3.98 GB", 
            "support_discard": "0", 
            "vendor": null, 
            "virtual": 1
        }, 
        "dm-2": {
            "holders": [], 
            "host": "", 
            "links": {
                "ids": [
                    "dm-name-cl-home", 
                    "dm-uuid-LVM-mkuXHteSAX9BPUXUH05ms9Pp3YjTlzQ0Xc4RyIETnyseib21P1DCBFnMzqttd2eL"
                ], 
                "labels": [], 
                "masters": [], 
                "uuids": [
                    "2991af9b-9a0d-41b4-831f-a4ae9e70df42"
                ]
            }, 
            "model": null, 
            "partitions": {}, 
            "removable": "0", 
            "rotational": "1", 
            "sas_address": null, 
            "sas_device_handle": null, 
            "scheduler_mode": "", 
            "sectors": "618700800", 
            "sectorsize": "512", 
            "serial": "VB56b1dd4a", 
            "size": "295.02 GB", 
            "support_discard": "0", 
            "vendor": null, 
            "virtual": 1
        }, 
        "sda": {
            "holders": [], 
            "host": "", 
            "links": {
                "ids": [
                    "ata-VBOX_HARDDISK_VB56b1dd4a-69dbf973"
                ], 
                "labels": [], 
                "masters": [], 
                "uuids": []
            }, 
            "model": "VBOX HARDDISK", 
            "partitions": {
                "sda1": {
                    "holders": [], 
                    "links": {
                        "ids": [
                            "ata-VBOX_HARDDISK_VB56b1dd4a-69dbf973-part1"
                        ], 
                        "labels": [], 
                        "masters": [], 
                        "uuids": [
                            "914315e2-31e9-4f50-aee3-f8f4852db5b5"
                        ]
                    }, 
                    "sectors": "2097152", 
                    "sectorsize": 512, 
                    "size": "1.00 GB", 
                    "start": "2048", 
                    "uuid": "914315e2-31e9-4f50-aee3-f8f4852db5b5"
                }, 
                "sda2": {
                    "holders": [
                        "cl-swap", 
                        "cl-home", 
                        "cl-root"
                    ], 
                    "links": {
                        "ids": [
                            "ata-VBOX_HARDDISK_VB56b1dd4a-69dbf973-part2", 
                            "lvm-pv-uuid-2b23QQ-pAB9-oCx5-6OJa-xCpu-hxnq-mwC97D"
                        ], 
                        "labels": [], 
                        "masters": [
                            "dm-0", 
                            "dm-1", 
                            "dm-2"
                        ], 
                        "uuids": []
                    }, 
                    "sectors": "731904000", 
                    "sectorsize": 512, 
                    "size": "349.00 GB", 
                    "start": "2099200", 
                    "uuid": null
                }
            }, 
            "removable": "0", 
            "rotational": "1", 
            "sas_address": null, 
            "sas_device_handle": null, 
            "scheduler_mode": "mq-deadline", 
            "sectors": "734003200", 
            "sectorsize": "512", 
            "serial": "VB56b1dd4a", 
            "size": "350.00 GB", 
            "support_discard": "0", 
            "vendor": "ATA", 
            "virtual": 1
        }, 
        "sr0": {
            "holders": [], 
            "host": "", 
            "links": {
                "ids": [
                    "ata-VBOX_CD-ROM_VB2-01700376"
                ], 
                "labels": [
                    "CentOS-8-1-1911-x86_64-dvd"
                ], 
                "masters": [], 
                "uuids": [
                    "2020-01-03-21-42-40-00"
                ]
            }, 
            "model": "CD-ROM", 
            "partitions": {}, 
            "removable": "1", 
            "rotational": "1", 
            "sas_address": null, 
            "sas_device_handle": null, 
            "scheduler_mode": "mq-deadline", 
            "sectors": "14755840", 
            "sectorsize": "2048", 
            "size": "7.04 GB", 
            "support_discard": "0", 
            "vendor": "VBOX", 
            "virtual": 1
        }
    }, 
    "ansible_distribution": "CentOS", 
    "ansible_distribution_file_parsed": true, 
    "ansible_distribution_file_path": "/etc/redhat-release", 
    "ansible_distribution_file_variety": "RedHat", 
    "ansible_distribution_major_version": "8", 
    "ansible_distribution_release": "Core", 
    "ansible_distribution_version": "8.1", 
    "ansible_dns": {}, 
    "ansible_domain": "mehar.me", 
    "ansible_effective_group_id": 0, 
    "ansible_effective_user_id": 0, 
    "ansible_enp0s3": {
        "active": true, 
        "device": "enp0s3", 
        "features": {
            "esp_hw_offload": "off [fixed]", 
            "esp_tx_csum_hw_offload": "off [fixed]", 
            "fcoe_mtu": "off [fixed]", 
            "generic_receive_offload": "on", 
            "generic_segmentation_offload": "on", 
            "highdma": "off [fixed]", 
            "hw_tc_offload": "off [fixed]", 
            "l2_fwd_offload": "off [fixed]", 
            "large_receive_offload": "off [fixed]", 
            "loopback": "off [fixed]", 
            "netns_local": "off [fixed]", 
            "ntuple_filters": "off [fixed]", 
            "receive_hashing": "off [fixed]", 
            "rx_all": "off", 
            "rx_checksumming": "off", 
            "rx_fcs": "off", 
            "rx_gro_hw": "off [fixed]", 
            "rx_udp_tunnel_port_offload": "off [fixed]", 
            "rx_vlan_filter": "on [fixed]", 
            "rx_vlan_offload": "on", 
            "rx_vlan_stag_filter": "off [fixed]", 
            "rx_vlan_stag_hw_parse": "off [fixed]", 
            "scatter_gather": "on", 
            "tcp_segmentation_offload": "on", 
            "tls_hw_record": "off [fixed]", 
            "tls_hw_rx_offload": "off [fixed]", 
            "tls_hw_tx_offload": "off [fixed]", 
            "tx_checksum_fcoe_crc": "off [fixed]", 
            "tx_checksum_ip_generic": "on", 
            "tx_checksum_ipv4": "off [fixed]", 
            "tx_checksum_ipv6": "off [fixed]", 
            "tx_checksum_sctp": "off [fixed]", 
            "tx_checksumming": "on", 
            "tx_esp_segmentation": "off [fixed]", 
            "tx_fcoe_segmentation": "off [fixed]", 
            "tx_gre_csum_segmentation": "off [fixed]", 
            "tx_gre_segmentation": "off [fixed]", 
            "tx_gso_partial": "off [fixed]", 
            "tx_gso_robust": "off [fixed]", 
            "tx_ipxip4_segmentation": "off [fixed]", 
            "tx_ipxip6_segmentation": "off [fixed]", 
            "tx_lockless": "off [fixed]", 
            "tx_nocache_copy": "off", 
            "tx_scatter_gather": "on", 
            "tx_scatter_gather_fraglist": "off [fixed]", 
            "tx_sctp_segmentation": "off [fixed]", 
            "tx_tcp6_segmentation": "off [fixed]", 
            "tx_tcp_ecn_segmentation": "off [fixed]", 
            "tx_tcp_mangleid_segmentation": "off", 
            "tx_tcp_segmentation": "on", 
            "tx_udp_segmentation": "off [fixed]", 
            "tx_udp_tnl_csum_segmentation": "off [fixed]", 
            "tx_udp_tnl_segmentation": "off [fixed]", 
            "tx_vlan_offload": "on [fixed]", 
            "tx_vlan_stag_hw_insert": "off [fixed]", 
            "vlan_challenged": "off [fixed]"
        }, 
        "hw_timestamp_filters": [], 
        "ipv4": {
            "address": "172.29.232.3", 
            "broadcast": "172.29.255.255", 
            "netmask": "255.255.0.0", 
            "network": "172.29.0.0"
        }, 
        "ipv6": [
            {
                "address": "fe80::3044:5ad3:7e2b:1df7", 
                "prefix": "64", 
                "scope": "link"
            }
        ], 
        "macaddress": "08:00:27:05:9f:8e", 
        "module": "e1000", 
        "mtu": 1500, 
        "pciid": "0000:00:03.0", 
        "promisc": false, 
        "speed": 1000, 
        "timestamping": [
            "tx_software", 
            "rx_software", 
            "software"
        ], 
        "type": "ether"
    }, 
    "ansible_env": {
        "DBUS_SESSION_BUS_ADDRESS": "unix:path=/run/user/0/bus", 
        "HOME": "/root", 
        "LANG": "en_GB.UTF-8", 
        "LESSOPEN": "||/usr/bin/lesspipe.sh %s", 
        "LOGNAME": "root", 
        "LS_COLORS": "rs=0:di=38;5;33:ln=38;5;51:mh=00:pi=40;38;5;11:so=38;5;13:do=38;5;5:bd=48;5;232;38;5;11:cd=48;5;232;38;5;3:or=48;5;232;38;5;9:mi=01;05;37;41:su=48;5;196;38;5;15:sg=48;5;11;38;5;16:ca=48;5;196;38;5;226:tw=48;5;10;38;5;16:ow=48;5;10;38;5;21:st=48;5;21;38;5;15:ex=38;5;40:*.tar=38;5;9:*.tgz=38;5;9:*.arc=38;5;9:*.arj=38;5;9:*.taz=38;5;9:*.lha=38;5;9:*.lz4=38;5;9:*.lzh=38;5;9:*.lzma=38;5;9:*.tlz=38;5;9:*.txz=38;5;9:*.tzo=38;5;9:*.t7z=38;5;9:*.zip=38;5;9:*.z=38;5;9:*.dz=38;5;9:*.gz=38;5;9:*.lrz=38;5;9:*.lz=38;5;9:*.lzo=38;5;9:*.xz=38;5;9:*.zst=38;5;9:*.tzst=38;5;9:*.bz2=38;5;9:*.bz=38;5;9:*.tbz=38;5;9:*.tbz2=38;5;9:*.tz=38;5;9:*.deb=38;5;9:*.rpm=38;5;9:*.jar=38;5;9:*.war=38;5;9:*.ear=38;5;9:*.sar=38;5;9:*.rar=38;5;9:*.alz=38;5;9:*.ace=38;5;9:*.zoo=38;5;9:*.cpio=38;5;9:*.7z=38;5;9:*.rz=38;5;9:*.cab=38;5;9:*.wim=38;5;9:*.swm=38;5;9:*.dwm=38;5;9:*.esd=38;5;9:*.jpg=38;5;13:*.jpeg=38;5;13:*.mjpg=38;5;13:*.mjpeg=38;5;13:*.gif=38;5;13:*.bmp=38;5;13:*.pbm=38;5;13:*.pgm=38;5;13:*.ppm=38;5;13:*.tga=38;5;13:*.xbm=38;5;13:*.xpm=38;5;13:*.tif=38;5;13:*.tiff=38;5;13:*.png=38;5;13:*.svg=38;5;13:*.svgz=38;5;13:*.mng=38;5;13:*.pcx=38;5;13:*.mov=38;5;13:*.mpg=38;5;13:*.mpeg=38;5;13:*.m2v=38;5;13:*.mkv=38;5;13:*.webm=38;5;13:*.ogm=38;5;13:*.mp4=38;5;13:*.m4v=38;5;13:*.mp4v=38;5;13:*.vob=38;5;13:*.qt=38;5;13:*.nuv=38;5;13:*.wmv=38;5;13:*.asf=38;5;13:*.rm=38;5;13:*.rmvb=38;5;13:*.flc=38;5;13:*.avi=38;5;13:*.fli=38;5;13:*.flv=38;5;13:*.gl=38;5;13:*.dl=38;5;13:*.xcf=38;5;13:*.xwd=38;5;13:*.yuv=38;5;13:*.cgm=38;5;13:*.emf=38;5;13:*.ogv=38;5;13:*.ogx=38;5;13:*.aac=38;5;45:*.au=38;5;45:*.flac=38;5;45:*.m4a=38;5;45:*.mid=38;5;45:*.midi=38;5;45:*.mka=38;5;45:*.mp3=38;5;45:*.mpc=38;5;45:*.ogg=38;5;45:*.ra=38;5;45:*.wav=38;5;45:*.oga=38;5;45:*.opus=38;5;45:*.spx=38;5;45:*.xspf=38;5;45:", 
        "PATH": "/usr/local/sbin:/usr/local/bin:/usr/sbin:/usr/bin", 
        "PWD": "/root", 
        "SELINUX_LEVEL_REQUESTED": "", 
        "SELINUX_ROLE_REQUESTED": "", 
        "SELINUX_USE_CURRENT_RANGE": "", 
        "SHELL": "/bin/bash", 
        "SHLVL": "2", 
        "SSH_CLIENT": "172.29.232.38 59352 22", 
        "SSH_CONNECTION": "172.29.232.38 59352 172.29.232.3 22", 
        "SSH_TTY": "/dev/pts/0", 
        "TERM": "xterm-256color", 
        "USER": "root", 
        "XDG_RUNTIME_DIR": "/run/user/0", 
        "XDG_SESSION_ID": "5", 
        "_": "/usr/libexec/platform-python"
    }, 
    "ansible_fibre_channel_wwn": [], 
    "ansible_fips": false, 
    "ansible_form_factor": "Other", 
    "ansible_fqdn": "manager.mehar.me", 
    "ansible_hostname": "manager", 
    "ansible_hostnqn": "", 
    "ansible_interfaces": [
        "lo", 
        "enp0s3"
    ], 
    "ansible_is_chroot": false, 
    "ansible_iscsi_iqn": "", 
    "ansible_kernel": "4.18.0-147.el8.x86_64", 
    "ansible_kernel_version": "#1 SMP Wed Dec 4 21:51:45 UTC 2019", 
    "ansible_lo": {
        "active": true, 
        "device": "lo", 
        "features": {
            "esp_hw_offload": "off [fixed]", 
            "esp_tx_csum_hw_offload": "off [fixed]", 
            "fcoe_mtu": "off [fixed]", 
            "generic_receive_offload": "on", 
            "generic_segmentation_offload": "on", 
            "highdma": "on [fixed]", 
            "hw_tc_offload": "off [fixed]", 
            "l2_fwd_offload": "off [fixed]", 
            "large_receive_offload": "off [fixed]", 
            "loopback": "on [fixed]", 
            "netns_local": "on [fixed]", 
            "ntuple_filters": "off [fixed]", 
            "receive_hashing": "off [fixed]", 
            "rx_all": "off [fixed]", 
            "rx_checksumming": "on [fixed]", 
            "rx_fcs": "off [fixed]", 
            "rx_gro_hw": "off [fixed]", 
            "rx_udp_tunnel_port_offload": "off [fixed]", 
            "rx_vlan_filter": "off [fixed]", 
            "rx_vlan_offload": "off [fixed]", 
            "rx_vlan_stag_filter": "off [fixed]", 
            "rx_vlan_stag_hw_parse": "off [fixed]", 
            "scatter_gather": "on", 
            "tcp_segmentation_offload": "on", 
            "tls_hw_record": "off [fixed]", 
            "tls_hw_rx_offload": "off [fixed]", 
            "tls_hw_tx_offload": "off [fixed]", 
            "tx_checksum_fcoe_crc": "off [fixed]", 
            "tx_checksum_ip_generic": "on [fixed]", 
            "tx_checksum_ipv4": "off [fixed]", 
            "tx_checksum_ipv6": "off [fixed]", 
            "tx_checksum_sctp": "on [fixed]", 
            "tx_checksumming": "on", 
            "tx_esp_segmentation": "off [fixed]", 
            "tx_fcoe_segmentation": "off [fixed]", 
            "tx_gre_csum_segmentation": "off [fixed]", 
            "tx_gre_segmentation": "off [fixed]", 
            "tx_gso_partial": "off [fixed]", 
            "tx_gso_robust": "off [fixed]", 
            "tx_ipxip4_segmentation": "off [fixed]", 
            "tx_ipxip6_segmentation": "off [fixed]", 
            "tx_lockless": "on [fixed]", 
            "tx_nocache_copy": "off [fixed]", 
            "tx_scatter_gather": "on [fixed]", 
            "tx_scatter_gather_fraglist": "on [fixed]", 
            "tx_sctp_segmentation": "on", 
            "tx_tcp6_segmentation": "on", 
            "tx_tcp_ecn_segmentation": "on", 
            "tx_tcp_mangleid_segmentation": "on", 
            "tx_tcp_segmentation": "on", 
            "tx_udp_segmentation": "off [fixed]", 
            "tx_udp_tnl_csum_segmentation": "off [fixed]", 
            "tx_udp_tnl_segmentation": "off [fixed]", 
            "tx_vlan_offload": "off [fixed]", 
            "tx_vlan_stag_hw_insert": "off [fixed]", 
            "vlan_challenged": "on [fixed]"
        }, 
        "hw_timestamp_filters": [], 
        "ipv4": {
            "address": "127.0.0.1", 
            "broadcast": "host", 
            "netmask": "255.0.0.0", 
            "network": "127.0.0.0"
        }, 
        "ipv6": [
            {
                "address": "::1", 
                "prefix": "128", 
                "scope": "host"
            }
        ], 
        "mtu": 65536, 
        "promisc": false, 
        "timestamping": [
            "tx_software", 
            "rx_software", 
            "software"
        ], 
        "type": "loopback"
    }, 
    "ansible_local": {}, 
    "ansible_lsb": {}, 
    "ansible_lvm": {
        "lvs": {
            "home": {
                "size_g": "295.02", 
                "vg": "cl"
            }, 
            "root": {
                "size_g": "50.00", 
                "vg": "cl"
            }, 
            "swap": {
                "size_g": "3.98", 
                "vg": "cl"
            }
        }, 
        "pvs": {
            "/dev/sda2": {
                "free_g": "0", 
                "size_g": "349.00", 
                "vg": "cl"
            }
        }, 
        "vgs": {
            "cl": {
                "free_g": "0", 
                "num_lvs": "3", 
                "num_pvs": "1", 
                "size_g": "349.00"
            }
        }
    }, 
    "ansible_machine": "x86_64", 
    "ansible_machine_id": "e6347a1ef29e4040a17001ca39ef7ac7", 
    "ansible_memfree_mb": 3307, 
    "ansible_memory_mb": {
        "nocache": {
            "free": 3545, 
            "used": 235
        }, 
        "real": {
            "free": 3307, 
            "total": 3780, 
            "used": 473
        }, 
        "swap": {
            "cached": 0, 
            "free": 4071, 
            "total": 4071, 
            "used": 0
        }
    }, 
    "ansible_memtotal_mb": 3780, 
    "ansible_mounts": [
        {
            "block_available": 12685906, 
            "block_size": 4096, 
            "block_total": 13100800, 
            "block_used": 414894, 
            "device": "/dev/mapper/cl-root", 
            "fstype": "xfs", 
            "inode_available": 26182263, 
            "inode_total": 26214400, 
            "inode_used": 32137, 
            "mount": "/", 
            "options": "rw,seclabel,relatime,attr2,inode64,noquota", 
            "size_available": 51961470976, 
            "size_total": 53660876800, 
            "uuid": "3e92a425-809e-4a62-afed-5570b0b07adc"
        }, 
        {
            "block_available": 198044, 
            "block_size": 4096, 
            "block_total": 249830, 
            "block_used": 51786, 
            "device": "/dev/sda1", 
            "fstype": "ext4", 
            "inode_available": 65227, 
            "inode_total": 65536, 
            "inode_used": 309, 
            "mount": "/boot", 
            "options": "rw,seclabel,relatime", 
            "size_available": 811188224, 
            "size_total": 1023303680, 
            "uuid": "914315e2-31e9-4f50-aee3-f8f4852db5b5"
        }, 
        {
            "block_available": 76752370, 
            "block_size": 4096, 
            "block_total": 77299838, 
            "block_used": 547468, 
            "device": "/dev/mapper/cl-home", 
            "fstype": "xfs", 
            "inode_available": 154675197, 
            "inode_total": 154675200, 
            "inode_used": 3, 
            "mount": "/home", 
            "options": "rw,seclabel,relatime,attr2,inode64,noquota", 
            "size_available": 314377707520, 
            "size_total": 316620136448, 
            "uuid": "2991af9b-9a0d-41b4-831f-a4ae9e70df42"
        }
    ], 
    "ansible_nodename": "manager.mehar.me", 
    "ansible_os_family": "RedHat", 
    "ansible_pkg_mgr": "dnf", 
    "ansible_proc_cmdline": {
        "BOOT_IMAGE": "(hd0,msdos1)/vmlinuz-4.18.0-147.el8.x86_64", 
        "crashkernel": "auto", 
        "quiet": true, 
        "rd.lvm.lv": [
            "cl/root", 
            "cl/swap"
        ], 
        "resume": "/dev/mapper/cl-swap", 
        "rhgb": true, 
        "ro": true, 
        "root": "/dev/mapper/cl-root"
    }, 
    "ansible_processor": [
        "0", 
        "GenuineIntel", 
        "Intel(R) Core(TM) i7-8569U CPU @ 2.80GHz", 
        "1", 
        "GenuineIntel", 
        "Intel(R) Core(TM) i7-8569U CPU @ 2.80GHz"
    ], 
    "ansible_processor_cores": 2, 
    "ansible_processor_count": 1, 
    "ansible_processor_threads_per_core": 1, 
    "ansible_processor_vcpus": 2, 
    "ansible_product_name": "VirtualBox", 
    "ansible_product_serial": "0", 
    "ansible_product_uuid": "0faf85a5-5bb1-3b4f-a685-414dfa2d99d3", 
    "ansible_product_version": "1.2", 
    "ansible_python": {
        "executable": "/usr/libexec/platform-python", 
        "has_sslcontext": true, 
        "type": "cpython", 
        "version": {
            "major": 3, 
            "micro": 8, 
            "minor": 6, 
            "releaselevel": "final", 
            "serial": 0
        }, 
        "version_info": [
            3, 
            6, 
            8, 
            "final", 
            0
        ]
    }, 
    "ansible_python_version": "3.6.8", 
    "ansible_real_group_id": 0, 
    "ansible_real_user_id": 0, 
    "ansible_selinux": {
        "config_mode": "enforcing", 
        "mode": "enforcing", 
        "policyvers": 31, 
        "status": "enabled", 
        "type": "targeted"
    }, 
    "ansible_selinux_python_present": true, 
    "ansible_service_mgr": "systemd", 
    "ansible_ssh_host_key_ecdsa_public": "AAAAE2VjZHNhLXNoYTItbmlzdHAyNTYAAAAIbmlzdHAyNTYAAABBBFLC2dsxm6EHG7860kGcmX5c+I/dXBXBMvd96livz2NUnw6ZHUxUL/Cl5WjxV+Cj1OyBaIIeIKvJ26/PF51WcOA=", 
    "ansible_ssh_host_key_ed25519_public": "AAAAC3NzaC1lZDI1NTE5AAAAIBR7N2tWSsfBD8gNm4XysfiqBzy79uPP6WbhzxzeWv+D", 
    "ansible_ssh_host_key_rsa_public": "AAAAB3NzaC1yc2EAAAADAQABAAABgQCWq5y/SZO6t5uE9GP5WwxCIo1IYXRCwJlvUyloUFX+p2p4K208QH8tQI8GSXUNZOM2prfpZgwUKqaK5qRlWGThKroQwtWf0RgvSq8Z9JuujfLFRnyjY94CA2LzgMsYAVGBP7DwjMkDTIfKKKS+4eRHuukSh4J82mX2QC7cGde1peMiww+zCvOMkF3zM32HULPJU8K8x/VYPAvg3HhVvnW8xJD3x4LLpSyySSxA9uzieGgw4QKX90K/78lNKsy50aYRwUHBmOeOdmhvlsXPO8SZnCN+Hyg+NVZnil+yG5RgmPltsBc2dyvxWatQf9R7zanJ7txpxYcOGe18joGZb1GoXqpFykjav992HOmXo5brWi3wo2mKXdSnRBAsJi5o1rWSIIpSlPttELxAlOEa2JgSypw4ixl0U1MQVG7nL7D+iHpZQb9XjRypAttAU8RbmiUTyoIzWt2mEgrF/ZHgXZZnXm5+O7Fk5TXmjYwQ14rkmJ3yGplhXBo9dOdLvI10Mxk=", 
    "ansible_swapfree_mb": 4071, 
    "ansible_swaptotal_mb": 4071, 
    "ansible_system": "Linux", 
    "ansible_system_capabilities": [
        "cap_chown", 
        "cap_dac_override", 
        "cap_dac_read_search", 
        "cap_fowner", 
        "cap_fsetid", 
        "cap_kill", 
        "cap_setgid", 
        "cap_setuid", 
        "cap_setpcap", 
        "cap_linux_immutable", 
        "cap_net_bind_service", 
        "cap_net_broadcast", 
        "cap_net_admin", 
        "cap_net_raw", 
        "cap_ipc_lock", 
        "cap_ipc_owner", 
        "cap_sys_module", 
        "cap_sys_rawio", 
        "cap_sys_chroot", 
        "cap_sys_ptrace", 
        "cap_sys_pacct", 
        "cap_sys_admin", 
        "cap_sys_boot", 
        "cap_sys_nice", 
        "cap_sys_resource", 
        "cap_sys_time", 
        "cap_sys_tty_config", 
        "cap_mknod", 
        "cap_lease", 
        "cap_audit_write", 
        "cap_audit_control", 
        "cap_setfcap", 
        "cap_mac_override", 
        "cap_mac_admin", 
        "cap_syslog", 
        "cap_wake_alarm", 
        "cap_block_suspend", 
        "cap_audit_read+ep"
    ], 
    "ansible_system_capabilities_enforced": "True", 
    "ansible_system_vendor": "innotek GmbH", 
    "ansible_uptime_seconds": 4383, 
    "ansible_user_dir": "/root", 
    "ansible_user_gecos": "root", 
    "ansible_user_gid": 0, 
    "ansible_user_id": "root", 
    "ansible_user_shell": "/bin/bash", 
    "ansible_user_uid": 0, 
    "ansible_userspace_architecture": "x86_64", 
    "ansible_userspace_bits": "64", 
    "ansible_virtualization_role": "guest", 
    "ansible_virtualization_type": "virtualbox", 
    "discovered_interpreter_python": "/usr/libexec/platform-python", 
    "gather_subset": [
        "all"
    ], 
    "module_setup": true
}